Projet_CAM/eclat/target/tb.vcd
$date
  Sat May 17 13:33:46 2025
$end
$version
  GHDL v0
$end
$timescale
  1 fs
$end
$scope module standard $end
$upscope $end
$scope module std_logic_1164 $end
$upscope $end
$scope module numeric_std $end
$upscope $end
$scope module runtime $end
$upscope $end
$scope module textio $end
$upscope $end
$scope module int $end
$upscope $end
$scope module util $end
$upscope $end
$scope module print $end
$upscope $end
$scope module bool $end
$upscope $end
$scope module tb_main $end
$var reg 1 ! tb_argument[0:0] $end
$var reg 1 " tb_result[0:0] $end
$var reg 1 # tb_next_result[0:0] $end
$var reg 1 $ tb_clk $end
$var reg 1 % rst $end
$scope module u1 $end
$var reg 1 & clk $end
$var reg 1 ' reset $end
$var reg 1 ( argument[0:0] $end
$var reg 1 ) result[0:0] $end
$comment \state%now\ is not handled $end
$comment \state%next\ is not handled $end
$comment \state_var770%now\ is not handled $end
$comment \state_var770%next\ is not handled $end
$comment \$1101_code\ is not handled $end
$var reg 69 * \$$1101_code_value\[0:68] $end
$var integer 32 + \$$1101_code_ptr\ $end
$var integer 32 , \$$1101_code_ptr_write\ $end
$var reg 69 - \$$1101_code_write\[0:68] $end
$var reg 1 . \$$1101_code_write_request\ $end
$comment \$1102_stack\ is not handled $end
$var reg 32 / \$$1102_stack_value\[0:31] $end
$var integer 32 0 \$$1102_stack_ptr\ $end
$var integer 32 1 \$$1102_stack_ptr_write\ $end
$var reg 32 2 \$$1102_stack_write\[0:31] $end
$var reg 1 3 \$$1102_stack_write_request\ $end
$var reg 33 4 \$1356%next\[0:32] $end
$var reg 33 5 \$1356%now\[0:32] $end
$var reg 64 6 \$v585%next\[0:63] $end
$var reg 64 7 \$v585%now\[0:63] $end
$var reg 69 8 \$1373%next\[0:68] $end
$var reg 69 9 \$1373%now\[0:68] $end
$var reg 5 : \$v692%next\[0:4] $end
$var reg 5 ; \$v692%now\[0:4] $end
$var reg 12 < \$1370_id%next\[0:11] $end
$var reg 12 = \$1370_id%now\[0:11] $end
$var reg 98 > \$1370_arg%next\[0:97] $end
$var reg 98 ? \$1370_arg%now\[0:97] $end
$var reg 1 @ \$$1102_stack_lock%next\[0:0] $end
$var reg 1 A \$$1102_stack_lock%now\[0:0] $end
$var reg 1 B \$$1101_code_lock%next\[0:0] $end
$var reg 1 C \$$1101_code_lock%now\[0:0] $end
$var reg 1 D \$v657%next\[0:0] $end
$var reg 1 E \$v657%now\[0:0] $end
$var reg 1 F \$1385_w%next\[0:0] $end
$var reg 1 G \$1385_w%now\[0:0] $end
$var reg 1 H \$1399%next\[0:0] $end
$var reg 1 I \$1399%now\[0:0] $end
$var reg 1 J \$1366%next\[0:0] $end
$var reg 1 K \$1366%now\[0:0] $end
$var reg 1 L \$v733%next\[0:0] $end
$var reg 1 M \$v733%now\[0:0] $end
$var reg 1 N \$v752%next\[0:0] $end
$var reg 1 O \$v752%now\[0:0] $end
$var reg 1 P \$1367%next\[0:0] $end
$var reg 1 Q \$1367%now\[0:0] $end
$var reg 1 R \$v645%next\[0:0] $end
$var reg 1 S \$v645%now\[0:0] $end
$var reg 1 T \$1420%next\[0:0] $end
$var reg 1 U \$1420%now\[0:0] $end
$var reg 1 V \$1428%next\[0:0] $end
$var reg 1 W \$1428%now\[0:0] $end
$var reg 1 X \$v753%next\[0:0] $end
$var reg 1 Y \$v753%now\[0:0] $end
$var reg 1 Z \$v700%next\[0:0] $end
$var reg 1 [ \$v700%now\[0:0] $end
$var reg 1 \ \$v612%next\[0:0] $end
$var reg 1 ] \$v612%now\[0:0] $end
$var reg 1 ^ \$1430%next\[0:0] $end
$var reg 1 _ \$1430%now\[0:0] $end
$var reg 1 ` \$1433%next\[0:0] $end
$var reg 1 a \$1433%now\[0:0] $end
$var reg 1 b \$1357%next\[0:0] $end
$var reg 1 c \$1357%now\[0:0] $end
$var reg 1 d \$v666%next\[0:0] $end
$var reg 1 e \$v666%now\[0:0] $end
$var reg 1 f \$1378%next\[0:0] $end
$var reg 1 g \$1378%now\[0:0] $end
$var reg 1 h \$1411%next\[0:0] $end
$var reg 1 i \$1411%now\[0:0] $end
$var reg 1 j \$v709%next\[0:0] $end
$var reg 1 k \$v709%now\[0:0] $end
$var reg 1 l \$1396%next\[0:0] $end
$var reg 1 m \$1396%now\[0:0] $end
$var reg 1 n \result579%next\[0:0] $end
$var reg 1 o \result579%now\[0:0] $end
$var reg 1 p \$1390%next\[0:0] $end
$var reg 1 q \$1390%now\[0:0] $end
$var reg 1 r \$1429%next\[0:0] $end
$var reg 1 s \$1429%now\[0:0] $end
$var reg 1 t \$v695%next\[0:0] $end
$var reg 1 u \$v695%now\[0:0] $end
$var reg 1 v \$v725%next\[0:0] $end
$var reg 1 w \$v725%now\[0:0] $end
$var reg 1 x \$v624%next\[0:0] $end
$var reg 1 y \$v624%now\[0:0] $end
$var reg 1 z \$v594%next\[0:0] $end
$var reg 1 { \$v594%now\[0:0] $end
$var reg 1 | \$v603%next\[0:0] $end
$var reg 1 } \$v603%now\[0:0] $end
$var reg 1 !" \$1404%next\[0:0] $end
$var reg 1 "" \$1404%now\[0:0] $end
$var reg 1 #" \$1403%next\[0:0] $end
$var reg 1 $" \$1403%now\[0:0] $end
$var reg 1 %" \$1421%next\[0:0] $end
$var reg 1 &" \$1421%now\[0:0] $end
$var reg 1 '" \$v740%next\[0:0] $end
$var reg 1 (" \$v740%now\[0:0] $end
$var reg 1 )" \$v741%next\[0:0] $end
$var reg 1 *" \$v741%now\[0:0] $end
$var reg 1 +" \$v748%next\[0:0] $end
$var reg 1 ," \$v748%now\[0:0] $end
$var reg 1 -" \$v669%next\[0:0] $end
$var reg 1 ." \$v669%now\[0:0] $end
$var reg 1 /" \$v675%next\[0:0] $end
$var reg 1 0" \$v675%now\[0:0] $end
$var reg 1 1" \$v684%next\[0:0] $end
$var reg 1 2" \$v684%now\[0:0] $end
$var reg 1 3" \$v705%next\[0:0] $end
$var reg 1 4" \$v705%now\[0:0] $end
$var reg 1 5" \$v627%next\[0:0] $end
$var reg 1 6" \$v627%now\[0:0] $end
$var reg 1 7" \$v729%next\[0:0] $end
$var reg 1 8" \$v729%now\[0:0] $end
$var reg 1 9" \$v708%next\[0:0] $end
$var reg 1 :" \$v708%now\[0:0] $end
$var reg 1 ;" \rdy583%next\[0:0] $end
$var reg 1 <" \rdy583%now\[0:0] $end
$var reg 1 =" \$v765%next\[0:0] $end
$var reg 1 >" \$v765%now\[0:0] $end
$var reg 1 ?" \$v712%next\[0:0] $end
$var reg 1 @" \$v712%now\[0:0] $end
$var reg 1 A" \$1408%next\[0:0] $end
$var reg 1 B" \$1408%now\[0:0] $end
$var reg 1 C" \$1416%next\[0:0] $end
$var reg 1 D" \$1416%now\[0:0] $end
$var reg 1 E" \$v672%next\[0:0] $end
$var reg 1 F" \$v672%now\[0:0] $end
$var reg 1 G" \$1374%next\[0:0] $end
$var reg 1 H" \$1374%now\[0:0] $end
$var reg 1 I" \$v704%next\[0:0] $end
$var reg 1 J" \$v704%now\[0:0] $end
$var reg 1 K" \$v615%next\[0:0] $end
$var reg 1 L" \$v615%now\[0:0] $end
$var reg 1 M" \$1386_w%next\[0:0] $end
$var reg 1 N" \$1386_w%now\[0:0] $end
$var reg 1 O" \$1412%next\[0:0] $end
$var reg 1 P" \$1412%now\[0:0] $end
$var reg 1 Q" \$1368%next\[0:0] $end
$var reg 1 R" \$1368%now\[0:0] $end
$var reg 1 S" \$v660%next\[0:0] $end
$var reg 1 T" \$v660%now\[0:0] $end
$var reg 1 U" \$v690%next\[0:0] $end
$var reg 1 V" \$v690%now\[0:0] $end
$var reg 1 W" \$v717%next\[0:0] $end
$var reg 1 X" \$v717%now\[0:0] $end
$var reg 1 Y" \$v728%next\[0:0] $end
$var reg 1 Z" \$v728%now\[0:0] $end
$var reg 1 [" \$1359%next\[0:0] $end
$var reg 1 \" \$1359%now\[0:0] $end
$var reg 1 ]" \$v618%next\[0:0] $end
$var reg 1 ^" \$v618%now\[0:0] $end
$var reg 1 _" \$v701%next\[0:0] $end
$var reg 1 `" \$v701%now\[0:0] $end
$var reg 1 a" \$1426%next\[0:0] $end
$var reg 1 b" \$1426%now\[0:0] $end
$var reg 1 c" \$1419%next\[0:0] $end
$var reg 1 d" \$1419%now\[0:0] $end
$var reg 1 e" \$v633%next\[0:0] $end
$var reg 1 f" \$v633%now\[0:0] $end
$var reg 1 g" \$v642%next\[0:0] $end
$var reg 1 h" \$v642%now\[0:0] $end
$var reg 1 i" \$v757%next\[0:0] $end
$var reg 1 j" \$v757%now\[0:0] $end
$var reg 1 k" \$1407%next\[0:0] $end
$var reg 1 l" \$1407%now\[0:0] $end
$var reg 1 m" \$1425%next\[0:0] $end
$var reg 1 n" \$1425%now\[0:0] $end
$var reg 1 o" \$v713%next\[0:0] $end
$var reg 1 p" \$v713%now\[0:0] $end
$var reg 1 q" \$v609%next\[0:0] $end
$var reg 1 r" \$v609%now\[0:0] $end
$var reg 1 s" \$1363%next\[0:0] $end
$var reg 1 t" \$1363%now\[0:0] $end
$var reg 1 u" \$1424%next\[0:0] $end
$var reg 1 v" \$1424%now\[0:0] $end
$var reg 1 w" \$v732%next\[0:0] $end
$var reg 1 x" \$v732%now\[0:0] $end
$var reg 1 y" \$v663%next\[0:0] $end
$var reg 1 z" \$v663%now\[0:0] $end
$var reg 1 {" \$1369%next\[0:0] $end
$var reg 1 |" \$1369%now\[0:0] $end
$var reg 1 }" \$1431%next\[0:0] $end
$var reg 1 !# \$1431%now\[0:0] $end
$var reg 1 "# \$v724%next\[0:0] $end
$var reg 1 ## \$v724%now\[0:0] $end
$var reg 1 $# \rdy580%next\[0:0] $end
$var reg 1 %# \rdy580%now\[0:0] $end
$var reg 1 &# \$v636%next\[0:0] $end
$var reg 1 '# \$v636%now\[0:0] $end
$var reg 1 (# \$v720%next\[0:0] $end
$var reg 1 )# \$v720%now\[0:0] $end
$var reg 1 *# \$v744%next\[0:0] $end
$var reg 1 +# \$v744%now\[0:0] $end
$var reg 1 ,# \$v756%next\[0:0] $end
$var reg 1 -# \$v756%now\[0:0] $end
$var reg 1 .# \$v648%next\[0:0] $end
$var reg 1 /# \$v648%now\[0:0] $end
$var reg 1 0# \$1391%next\[0:0] $end
$var reg 1 1# \$1391%now\[0:0] $end
$var reg 1 2# \$1364%next\[0:0] $end
$var reg 1 3# \$1364%now\[0:0] $end
$var reg 1 4# \$1432%next\[0:0] $end
$var reg 1 5# \$1432%now\[0:0] $end
$var reg 1 6# \$v697%next\[0:0] $end
$var reg 1 7# \$v697%now\[0:0] $end
$var reg 1 8# \$1400%next\[0:0] $end
$var reg 1 9# \$1400%now\[0:0] $end
$var reg 1 :# \$v577%next\[0:0] $end
$var reg 1 ;# \$v577%now\[0:0] $end
$var reg 1 <# \$1392%next\[0:0] $end
$var reg 1 =# \$1392%now\[0:0] $end
$var reg 1 ># \$1360%next\[0:0] $end
$var reg 1 ?# \$1360%now\[0:0] $end
$var reg 1 @# \$v681%next\[0:0] $end
$var reg 1 A# \$v681%now\[0:0] $end
$var reg 1 B# \$v591%next\[0:0] $end
$var reg 1 C# \$v591%now\[0:0] $end
$var reg 1 D# \$v654%next\[0:0] $end
$var reg 1 E# \$v654%now\[0:0] $end
$var reg 1 F# \$v687%next\[0:0] $end
$var reg 1 G# \$v687%now\[0:0] $end
$var reg 1 H# \$v651%next\[0:0] $end
$var reg 1 I# \$v651%now\[0:0] $end
$var reg 1 J# \$v597%next\[0:0] $end
$var reg 1 K# \$v597%now\[0:0] $end
$var reg 1 L# \$1382%next\[0:0] $end
$var reg 1 M# \$1382%now\[0:0] $end
$var reg 1 N# \$v716%next\[0:0] $end
$var reg 1 O# \$v716%now\[0:0] $end
$var reg 1 P# \$v768%next\[0:0] $end
$var reg 1 Q# \$v768%now\[0:0] $end
$var reg 1 R# \$v588%next\[0:0] $end
$var reg 1 S# \$v588%now\[0:0] $end
$var reg 1 T# \$v721%next\[0:0] $end
$var reg 1 U# \$v721%now\[0:0] $end
$var reg 1 V# \$v621%next\[0:0] $end
$var reg 1 W# \$v621%now\[0:0] $end
$var reg 1 X# \$1358%next\[0:0] $end
$var reg 1 Y# \$1358%now\[0:0] $end
$var reg 1 Z# \$1387%next\[0:0] $end
$var reg 1 [# \$1387%now\[0:0] $end
$var reg 1 \# \$v736%next\[0:0] $end
$var reg 1 ]# \$v736%now\[0:0] $end
$var reg 1 ^# \$v749%next\[0:0] $end
$var reg 1 _# \$v749%now\[0:0] $end
$var reg 1 `# \$1434%next\[0:0] $end
$var reg 1 a# \$1434%now\[0:0] $end
$var reg 1 b# \$1395%next\[0:0] $end
$var reg 1 c# \$1395%now\[0:0] $end
$var reg 1 d# \$1435%next\[0:0] $end
$var reg 1 e# \$1435%now\[0:0] $end
$var reg 1 f# \$v630%next\[0:0] $end
$var reg 1 g# \$v630%now\[0:0] $end
$var reg 1 h# \$v639%next\[0:0] $end
$var reg 1 i# \$v639%now\[0:0] $end
$var reg 1 j# \$1415%next\[0:0] $end
$var reg 1 k# \$1415%now\[0:0] $end
$var reg 1 l# \$v696%next\[0:0] $end
$var reg 1 m# \$v696%now\[0:0] $end
$var reg 1 n# \$v606%next\[0:0] $end
$var reg 1 o# \$v606%now\[0:0] $end
$var reg 1 p# \$v600%next\[0:0] $end
$var reg 1 q# \$v600%now\[0:0] $end
$var reg 1 r# \$v760%next\[0:0] $end
$var reg 1 s# \$v760%now\[0:0] $end
$var reg 1 t# \$v764%next\[0:0] $end
$var reg 1 u# \$v764%now\[0:0] $end
$var reg 1 v# \$v678%next\[0:0] $end
$var reg 1 w# \$v678%now\[0:0] $end
$var reg 1 x# \$1362%next\[0:0] $end
$var reg 1 y# \$1362%now\[0:0] $end
$var reg 1 z# \$1361%next\[0:0] $end
$var reg 1 {# \$1361%now\[0:0] $end
$var reg 1 |# \$1427%next\[0:0] $end
$var reg 1 }# \$1427%now\[0:0] $end
$var reg 1 !$ \$1380%next\[0:0] $end
$var reg 1 "$ \$1380%now\[0:0] $end
$var reg 1 #$ \$1422_b%next\[0:0] $end
$var reg 1 $$ \$1422_b%now\[0:0] $end
$var reg 32 %$ \$1423_v%next\[0:31] $end
$var reg 32 &$ \$1423_v%now\[0:31] $end
$var reg 32 '$ \$1409_x1%next\[0:31] $end
$var reg 32 ($ \$1409_x1%now\[0:31] $end
$var reg 32 )$ \$1405_x1%next\[0:31] $end
$var reg 32 *$ \$1405_x1%now\[0:31] $end
$var reg 32 +$ \$1413_x1%next\[0:31] $end
$var reg 32 ,$ \$1413_x1%now\[0:31] $end
$var reg 32 -$ \$1417_x1%next\[0:31] $end
$var reg 32 .$ \$1417_x1%now\[0:31] $end
$var reg 32 /$ \$1383_a%next\[0:31] $end
$var reg 32 0$ \$1383_a%now\[0:31] $end
$var reg 32 1$ \$v737%next\[0:31] $end
$var reg 32 2$ \$v737%now\[0:31] $end
$var reg 32 3$ \$1406_x2%next\[0:31] $end
$var reg 32 4$ \$1406_x2%now\[0:31] $end
$var reg 32 5$ \$1365_acc_final%next\[0:31] $end
$var reg 32 6$ \$1365_acc_final%now\[0:31] $end
$var reg 32 7$ \$1381_u%next\[0:31] $end
$var reg 32 8$ \$1381_u%now\[0:31] $end
$var reg 32 9$ \$1436%next\[0:31] $end
$var reg 32 :$ \$1436%now\[0:31] $end
$var reg 32 ;$ \result582%next\[0:31] $end
$var reg 32 <$ \result582%now\[0:31] $end
$var reg 32 =$ \$v761%next\[0:31] $end
$var reg 32 >$ \$v761%now\[0:31] $end
$var reg 32 ?$ \$1389_u%next\[0:31] $end
$var reg 32 @$ \$1389_u%now\[0:31] $end
$var reg 32 A$ \$1414_x2%next\[0:31] $end
$var reg 32 B$ \$1414_x2%now\[0:31] $end
$var reg 32 C$ \$1375_arg%next\[0:31] $end
$var reg 32 D$ \$1375_arg%now\[0:31] $end
$var reg 32 E$ \$1394_x2%next\[0:31] $end
$var reg 32 F$ \$1394_x2%now\[0:31] $end
$var reg 32 G$ \$1402_x2%next\[0:31] $end
$var reg 32 H$ \$1402_x2%now\[0:31] $end
$var reg 32 I$ \$1384_b%next\[0:31] $end
$var reg 32 J$ \$1384_b%now\[0:31] $end
$var reg 32 K$ \$1418_x2%next\[0:31] $end
$var reg 32 L$ \$1418_x2%now\[0:31] $end
$var reg 32 M$ \$1410_x2%next\[0:31] $end
$var reg 32 N$ \$1410_x2%now\[0:31] $end
$var reg 32 O$ \$1376_code_ptr%next\[0:31] $end
$var reg 32 P$ \$1376_code_ptr%now\[0:31] $end
$var reg 32 Q$ \$1393_x1%next\[0:31] $end
$var reg 32 R$ \$1393_x1%now\[0:31] $end
$var reg 32 S$ \$1398_x2%next\[0:31] $end
$var reg 32 T$ \$1398_x2%now\[0:31] $end
$var reg 32 U$ \$1397_x1%next\[0:31] $end
$var reg 32 V$ \$1397_x1%now\[0:31] $end
$var reg 32 W$ \$v745%next\[0:31] $end
$var reg 32 X$ \$v745%now\[0:31] $end
$var reg 32 Y$ \$1355_cy%next\[0:31] $end
$var reg 32 Z$ \$1355_cy%now\[0:31] $end
$var reg 32 [$ \$1379_v%next\[0:31] $end
$var reg 32 \$ \$1379_v%now\[0:31] $end
$var reg 32 ]$ \$1401_x1%next\[0:31] $end
$var reg 32 ^$ \$1401_x1%now\[0:31] $end
$var reg 32 _$ \$1377_n%next\[0:31] $end
$var reg 32 `$ \$1377_n%now\[0:31] $end
$var reg 32 a$ \$1370_result%next\[0:31] $end
$var reg 32 b$ \$1370_result%now\[0:31] $end
$var reg 32 c$ \$1388_v%next\[0:31] $end
$var reg 32 d$ \$1388_v%now\[0:31] $end
$upscope $end
$upscope $end
$enddefinitions $end
#0
b0 !
b1 "
bU #
1$
1%
1&
1'
b0 (
b1 )
b000000000000000000000000000000000000000000000000000000000000000000000 *
b0 +
b0 ,
b000111000000000000000000000000000000000000000000000000000000000000000 -
1.
b00000000000000000000000000000000 /
b0 0
b0 1
b00000000000000000000000000000000 2
03
b000000000000000000000000000000000 4
b000000000000000000000000000000000 5
b0000000000000000000000000000000000000000000000000000000000000000 6
b0000000000000000000000000000000000000000000000000000000000000000 7
b000000000000000000000000000000000000000000000000000000000000000000000 8
b000000000000000000000000000000000000000000000000000000000000000000000 9
b00000 :
b00000 ;
b000000000000 <
b000000000000 =
b00000000000000000000000000000000000000000000000000000000000000000000000000000000000000000000000000 >
b00000000000000000000000000000000000000000000000000000000000000000000000000000000000000000000000000 ?
b0 @
b0 A
b1 B
b0 C
b0 D
b0 E
b0 F
b0 G
b0 H
b0 I
b0 J
b0 K
b0 L
b0 M
b0 N
b0 O
b0 P
b0 Q
b0 R
b0 S
b0 T
b0 U
b0 V
b0 W
b0 X
b0 Y
b0 Z
b0 [
b0 \
b0 ]
b0 ^
b0 _
b0 `
b0 a
b0 b
b0 c
b0 d
b0 e
b0 f
b0 g
b0 h
b0 i
b0 j
b0 k
b0 l
b0 m
b1 n
b0 o
b0 p
b0 q
b0 r
b0 s
b0 t
b0 u
b0 v
b0 w
b0 x
b0 y
b0 z
b0 {
b0 |
b0 }
b0 !"
b0 ""
b0 #"
b0 $"
b0 %"
b0 &"
b0 '"
b0 ("
b0 )"
b0 *"
b0 +"
b0 ,"
b0 -"
b0 ."
b0 /"
b0 0"
b0 1"
b0 2"
b0 3"
b0 4"
b0 5"
b0 6"
b0 7"
b0 8"
b0 9"
b0 :"
b0 ;"
b0 <"
b1 ="
b0 >"
b0 ?"
b0 @"
b0 A"
b0 B"
b0 C"
b0 D"
b0 E"
b0 F"
b0 G"
b0 H"
b0 I"
b0 J"
b0 K"
b0 L"
b0 M"
b0 N"
b0 O"
b0 P"
b0 Q"
b0 R"
b0 S"
b0 T"
b0 U"
b0 V"
b0 W"
b0 X"
b0 Y"
b0 Z"
b0 ["
b0 \"
b0 ]"
b0 ^"
b0 _"
b0 `"
b0 a"
b0 b"
b0 c"
b0 d"
b0 e"
b0 f"
b0 g"
b0 h"
b0 i"
b0 j"
b0 k"
b0 l"
b0 m"
b0 n"
b0 o"
b0 p"
b0 q"
b0 r"
b0 s"
b0 t"
b0 u"
b0 v"
b0 w"
b0 x"
b0 y"
b0 z"
b0 {"
b0 |"
b0 }"
b0 !#
b0 "#
b0 ##
b1 $#
b0 %#
b0 &#
b0 '#
b0 (#
b0 )#
b0 *#
b0 +#
b0 ,#
b0 -#
b0 .#
b0 /#
b0 0#
b0 1#
b0 2#
b0 3#
b0 4#
b0 5#
b0 6#
b0 7#
b0 8#
b0 9#
b1 :#
b0 ;#
b0 <#
b0 =#
b0 >#
b0 ?#
b0 @#
b0 A#
b0 B#
b0 C#
b0 D#
b0 E#
b0 F#
b0 G#
b0 H#
b0 I#
b0 J#
b0 K#
b0 L#
b0 M#
b0 N#
b0 O#
b0 P#
b0 Q#
b0 R#
b0 S#
b0 T#
b0 U#
b0 V#
b0 W#
b0 X#
b0 Y#
b0 Z#
b0 [#
b0 \#
b0 ]#
b0 ^#
b0 _#
b0 `#
b0 a#
b0 b#
b0 c#
b0 d#
b0 e#
b0 f#
b0 g#
b0 h#
b0 i#
b0 j#
b0 k#
b0 l#
b0 m#
b0 n#
b0 o#
b0 p#
b0 q#
b0 r#
b0 s#
b0 t#
b0 u#
b0 v#
b0 w#
b0 x#
b0 y#
b0 z#
b0 {#
b0 |#
b0 }#
b0 !$
b0 "$
b0 #$
b0 $$
b00000000000000000000000000000000 %$
b00000000000000000000000000000000 &$
b00000000000000000000000000000000 '$
b00000000000000000000000000000000 ($
b00000000000000000000000000000000 )$
b00000000000000000000000000000000 *$
b00000000000000000000000000000000 +$
b00000000000000000000000000000000 ,$
b00000000000000000000000000000000 -$
b00000000000000000000000000000000 .$
b00000000000000000000000000000000 /$
b00000000000000000000000000000000 0$
b00000000000000000000000000000000 1$
b00000000000000000000000000000000 2$
b00000000000000000000000000000000 3$
b00000000000000000000000000000000 4$
b00000000000000000000000000000000 5$
b00000000000000000000000000000000 6$
b00000000000000000000000000000000 7$
b00000000000000000000000000000000 8$
b00000000000000000000000000000001 9$
b00000000000000000000000000000000 :$
b00000000000000000000000000000000 ;$
b00000000000000000000000000000000 <$
b00000000000000000000000000000000 =$
b00000000000000000000000000000000 >$
b00000000000000000000000000000000 ?$
b00000000000000000000000000000000 @$
b00000000000000000000000000000000 A$
b00000000000000000000000000000000 B$
b00000000000000000000000000000000 C$
b00000000000000000000000000000000 D$
b00000000000000000000000000000000 E$
b00000000000000000000000000000000 F$
b00000000000000000000000000000000 G$
b00000000000000000000000000000000 H$
b00000000000000000000000000000000 I$
b00000000000000000000000000000000 J$
b00000000000000000000000000000000 K$
b00000000000000000000000000000000 L$
b00000000000000000000000000000000 M$
b00000000000000000000000000000000 N$
b00000000000000000000000000000000 O$
b00000000000000000000000000000000 P$
b00000000000000000000000000000000 Q$
b00000000000000000000000000000000 R$
b00000000000000000000000000000000 S$
b00000000000000000000000000000000 T$
b00000000000000000000000000000000 U$
b00000000000000000000000000000000 V$
b00000000000000000000000000000000 W$
b00000000000000000000000000000000 X$
b00000000000000000000000000000001 Y$
b00000000000000000000000000000000 Z$
b00000000000000000000000000000000 [$
b00000000000000000000000000000000 \$
b00000000000000000000000000000000 ]$
b00000000000000000000000000000000 ^$
b00000000000000000000000000000000 _$
b00000000000000000000000000000000 `$
b00000000000000000000000000000000 a$
b00000000000000000000000000000000 b$
b00000000000000000000000000000000 c$
b00000000000000000000000000000000 d$
#2000000
0%
0'
#5000000
b1 !
0$
0&
b1 (
#10000000
1$
1&
bUUUUUUUUUUUUUUUUUUUUUUUUUUUUUUUUUUUUUUUUUUUUUUUUUUUUUUUUUUUUUUUUUUUUU *
b1 ,
b000000000000000000000000000001101001100000000000000000000000000000000 -
bUUUUUUUUUUUUUUUUUUUUUUUUUUUUUUUU /
b1 C
b1 b
b1 o
b1 >"
b1 %#
b1 ;#
b00000000000000000000000000000010 9$
b00000000000000000000000000000001 :$
b00000000000000000000000011010011 =$
b00000000000000000000000000000010 Y$
b00000000000000000000000000000001 Z$
#15000000
0$
0&
#20000000
1$
1&
b000111000000000000000000000000000000000000000000000000000000000000000 *
b10 ,
b001001000000000000000000000000000000000000000000000000000000000000000 -
b1 c
b1 i"
b1 X#
b00000000000000000000000000000011 9$
b00000000000000000000000000000010 :$
b00000000000000000000000011010011 >$
b00000000000000000000000000000011 Y$
b00000000000000000000000000000010 Z$
#25000000
b0 !
0$
0&
b0 (
#30000000
1$
1&
b11 ,
b000111000000000000000000000000000000000000000000000000000000000000000 -
b1 X
b1 ["
b1 j"
b1 Y#
b00000000000000000000000000000100 9$
b00000000000000000000000000000011 :$
b00000000000000000000000000000100 Y$
b00000000000000000000000000000011 Z$
#35000000
0$
0&
#40000000
1$
1&
b100 ,
b1 Y
b1 \"
b1 >#
b1 ^#
b00000000000000000000000000000101 9$
b00000000000000000000000000000100 :$
b00000000000000000000000000000101 Y$
b00000000000000000000000000000100 Z$
#45000000
0$
0&
#50000000
1$
1&
b101 ,
b000000000000000000000000000000000001100000000000000000000000000000000 -
b1 ?#
b1 _#
b1 z#
b00000000000000000000000000000110 9$
b00000000000000000000000000000101 :$
b00000000000000000000000000000011 W$
b00000000000000000000000000000110 Y$
b00000000000000000000000000000101 Z$
#55000000
0$
0&
#60000000
1$
1&
b110 ,
b001111000000000000000000000000000000000000000000000000000000000000000 -
b1 )"
b1 x#
b1 {#
b00000000000000000000000000000111 9$
b00000000000000000000000000000110 :$
b00000000000000000000000000000011 X$
b00000000000000000000000000000111 Y$
b00000000000000000000000000000110 Z$
#65000000
0$
0&
#70000000
1$
1&
b111 ,
b000000000000000000000000000000000010000000000000000000000000000000000 -
b1 *"
b1 m"
b1 y#
b00000000000000000000000000000100 1$
b00000000000000000000000000001000 9$
b00000000000000000000000000000111 :$
b00000000000000000000000000001000 Y$
b00000000000000000000000000000111 Z$
#75000000
0$
0&
#80000000
1$
1&
b1000 ,
b001001000000000000000000000000000000000000000000000000000000000000000 -
b1 L
b1 a"
b1 n"
b00000000000000000000000000000100 2$
b00000000000000000000000000001001 9$
b00000000000000000000000000001000 :$
b00000000000000000000000000001001 Y$
b00000000000000000000000000001000 Z$
#85000000
0$
0&
#90000000
1$
1&
b1001 ,
b1 M
b1 7"
b1 b"
b1 |#
b00000000000000000000000000001010 9$
b00000000000000000000000000001001 :$
b00000000000000000000000000001010 Y$
b00000000000000000000000000001001 Z$
#95000000
0$
0&
#100000000
1$
1&
b1010 ,
b000111000000000000000000000000000000000000000000000000000000000000000 -
b1 V
b1 v
b1 8"
b1 }#
b00000000000000000000000000001011 9$
b00000000000000000000000000001010 :$
b00000000000000000000000000001011 Y$
b00000000000000000000000000001010 Z$
#105000000
0$
0&
#110000000
1$
1&
b1011 ,
b001101000000000000000000000000000000000000000000000000000000000000000 -
b1 W
b1 r
b1 w
b1 T#
b00000000000000000000000000001100 9$
b00000000000000000000000000001011 :$
b00000000000000000000000000001100 Y$
b00000000000000000000000000001011 Z$
#115000000
0$
0&
#120000000
1$
1&
b1100 ,
b001011000000000000000000000000000000000000000000000000000000000000000 -
b1 ^
b1 s
b1 W"
b1 U#
b00000000000000000000000000001101 9$
b00000000000000000000000000001100 :$
b00000000000000000000000000001101 Y$
b00000000000000000000000000001100 Z$
#125000000
0$
0&
#130000000
1$
1&
b1101 ,
b001111000000000000000000000000000000000000000000000000000000000000000 -
b1 _
b1 X"
b1 o"
b1 }"
b00000000000000000000000000001110 9$
b00000000000000000000000000001101 :$
b00000000000000000000000000001110 Y$
b00000000000000000000000000001101 Z$
#135000000
0$
0&
#140000000
1$
1&
b1110 ,
b001101000000000000000000000000000000000000000000000000000000000000000 -
b1 j
b1 p"
b1 !#
b1 4#
b00000000000000000000000000001111 9$
b00000000000000000000000000001110 :$
b00000000000000000000000000001111 Y$
b00000000000000000000000000001110 Z$
#145000000
0$
0&
#150000000
1$
1&
b1111 ,
b1 `
b1 k
b1 3"
b1 5#
b00000000000000000000000000010000 9$
b00000000000000000000000000001111 :$
b00000000000000000000000000010000 Y$
b00000000000000000000000000001111 Z$
#155000000
0$
0&
#160000000
1$
1&
b10000 ,
b001001000000000000000000000000000000000000000000000000000000000000000 -
b1 a
b1 4"
b1 _"
b1 `#
b00000000000000000000000000010001 9$
b00000000000000000000000000010000 :$
b00000000000000000000000000010001 Y$
b00000000000000000000000000010000 Z$
#165000000
0$
0&
#170000000
1$
1&
b10001 ,
b010111000000000000000000000000000000000000000000000000000000000000000 -
b1 `"
b1 6#
b1 a#
b1 d#
b00000000000000000000000000010010 9$
b00000000000000000000000000010001 :$
b00000000000000000000000000010010 Y$
b00000000000000000000000000010001 Z$
#175000000
0$
0&
#180000000
1$
1&
0.
b000000000001 <
b00000000000000000000000000000000000000000000000000000000000000000000000000000000000000000000000011 >
b0 B
b1 s"
b1 7#
b1 e#
b00000000000000000000000000010011 9$
b00000000000000000000000000010010 :$
b00000000000000000000000000010011 Y$
b00000000000000000000000000010010 Z$
#185000000
0$
0&
#190000000
1$
1&
b000000000001 =
b00000000000000000000000000000000000000000000000000000000000000000000000000000000000000000000000011 ?
b1 B
b0 C
b1 t"
b00000000000000000000000000010100 9$
b00000000000000000000000000010011 :$
b00000000000000000000000000010100 Y$
b00000000000000000000000000010011 Z$
#195000000
0$
0&
#200000000
1$
1&
13
b1000000000000000000000000000000000000000000000000000000000000000 6
b000111000000000000000000000000000000000000000000000000000000000000000 8
b00011 :
b1 @
b0 B
b1 C
b1 T
b00000000000000000000000000010101 9$
b00000000000000000000000000010100 :$
b00000000000000000000000000010101 Y$
b00000000000000000000000000010100 Z$
#205000000
0$
0&
