Projet_CAM/eclat/target/tb.vcd
$date
  Tue May 20 15:58:18 2025
$end
$version
  GHDL v0
$end
$timescale
  1 fs
$end
$scope module standard $end
$upscope $end
$scope module std_logic_1164 $end
$upscope $end
$scope module numeric_std $end
$upscope $end
$scope module runtime $end
$upscope $end
$scope module textio $end
$upscope $end
$scope module int $end
$upscope $end
$scope module util $end
$upscope $end
$scope module print $end
$upscope $end
$scope module bool $end
$upscope $end
$scope module tb_main $end
$var reg 1 ! tb_argument[0:0] $end
$var reg 1 " tb_result[0:0] $end
$var reg 1 # tb_next_result[0:0] $end
$var reg 1 $ tb_clk $end
$var reg 1 % rst $end
$scope module u1 $end
$var reg 1 & clk $end
$var reg 1 ' reset $end
$var reg 1 ( argument[0:0] $end
$var reg 1 ) result[0:0] $end
$comment \state%now\ is not handled $end
$comment \state%next\ is not handled $end
$comment \state_var707%now\ is not handled $end
$comment \state_var707%next\ is not handled $end
$comment \$1137_code\ is not handled $end
$var reg 69 * \$$1137_code_value\[0:68] $end
$var integer 32 + \$$1137_code_ptr\ $end
$var integer 32 , \$$1137_code_ptr_write\ $end
$var reg 69 - \$$1137_code_write\[0:68] $end
$var reg 1 . \$$1137_code_write_request\ $end
$comment \$1138_stack\ is not handled $end
$var reg 32 / \$$1138_stack_value\[0:31] $end
$var integer 32 0 \$$1138_stack_ptr\ $end
$var integer 32 1 \$$1138_stack_ptr_write\ $end
$var reg 32 2 \$$1138_stack_write\[0:31] $end
$var reg 1 3 \$$1138_stack_write_request\ $end
$var reg 64 4 \$1402%next\[0:63] $end
$var reg 64 5 \$1402%now\[0:63] $end
$var reg 64 6 \$v566%next\[0:63] $end
$var reg 64 7 \$v566%now\[0:63] $end
$var reg 33 8 \$1381%next\[0:32] $end
$var reg 33 9 \$1381%now\[0:32] $end
$var reg 69 : \$1397%next\[0:68] $end
$var reg 69 ; \$1397%now\[0:68] $end
$var reg 12 < \$1394_id%next\[0:11] $end
$var reg 12 = \$1394_id%now\[0:11] $end
$var reg 5 > \$v677%next\[0:4] $end
$var reg 5 ? \$v677%now\[0:4] $end
$var reg 98 @ \$1394_arg%next\[0:97] $end
$var reg 98 A \$1394_arg%now\[0:97] $end
$var reg 1 B \$$1138_stack_lock%next\[0:0] $end
$var reg 1 C \$$1138_stack_lock%now\[0:0] $end
$var reg 1 D \$$1137_code_lock%next\[0:0] $end
$var reg 1 E \$$1137_code_lock%now\[0:0] $end
$var reg 1 F \$v657%next\[0:0] $end
$var reg 1 G \$v657%now\[0:0] $end
$var reg 1 H \$1384%next\[0:0] $end
$var reg 1 I \$1384%now\[0:0] $end
$var reg 1 J \$v645%next\[0:0] $end
$var reg 1 K \$v645%now\[0:0] $end
$var reg 1 L \$v612%next\[0:0] $end
$var reg 1 M \$v612%now\[0:0] $end
$var reg 1 N \$1406%next\[0:0] $end
$var reg 1 O \$1406%now\[0:0] $end
$var reg 1 P \$1430%next\[0:0] $end
$var reg 1 Q \$1430%now\[0:0] $end
$var reg 1 R \$1433%next\[0:0] $end
$var reg 1 S \$1433%now\[0:0] $end
$var reg 1 T \$1441%next\[0:0] $end
$var reg 1 U \$1441%now\[0:0] $end
$var reg 1 V \$v666%next\[0:0] $end
$var reg 1 W \$v666%now\[0:0] $end
$var reg 1 X \$1411_w%next\[0:0] $end
$var reg 1 Y \$1411_w%now\[0:0] $end
$var reg 1 Z \$1390%next\[0:0] $end
$var reg 1 [ \$1390%now\[0:0] $end
$var reg 1 \ \$1429%next\[0:0] $end
$var reg 1 ] \$1429%now\[0:0] $end
$var reg 1 ^ \$1383%next\[0:0] $end
$var reg 1 _ \$1383%now\[0:0] $end
$var reg 1 ` \$v624%next\[0:0] $end
$var reg 1 a \$v624%now\[0:0] $end
$var reg 1 b \$v594%next\[0:0] $end
$var reg 1 c \$v594%now\[0:0] $end
$var reg 1 d \$v603%next\[0:0] $end
$var reg 1 e \$v603%now\[0:0] $end
$var reg 1 f \$1404%next\[0:0] $end
$var reg 1 g \$1404%now\[0:0] $end
$var reg 1 h \$1446%next\[0:0] $end
$var reg 1 i \$1446%now\[0:0] $end
$var reg 1 j \$1421%next\[0:0] $end
$var reg 1 k \$1421%now\[0:0] $end
$var reg 1 l \$v669%next\[0:0] $end
$var reg 1 m \$v669%now\[0:0] $end
$var reg 1 n \$1448_b%next\[0:0] $end
$var reg 1 o \$1448_b%now\[0:0] $end
$var reg 1 p \$v675%next\[0:0] $end
$var reg 1 q \$v675%now\[0:0] $end
$var reg 1 r \$v573%next\[0:0] $end
$var reg 1 s \$v573%now\[0:0] $end
$var reg 1 t \$v705%next\[0:0] $end
$var reg 1 u \$v705%now\[0:0] $end
$var reg 1 v \$v627%next\[0:0] $end
$var reg 1 w \$v627%now\[0:0] $end
$var reg 1 x \$1393%next\[0:0] $end
$var reg 1 y \$1393%now\[0:0] $end
$var reg 1 z \$1413%next\[0:0] $end
$var reg 1 { \$1413%now\[0:0] $end
$var reg 1 | \$1388%next\[0:0] $end
$var reg 1 } \$1388%now\[0:0] $end
$var reg 1 !" \$v558%next\[0:0] $end
$var reg 1 "" \$v558%now\[0:0] $end
$var reg 1 #" \$1408%next\[0:0] $end
$var reg 1 $" \$1408%now\[0:0] $end
$var reg 1 %" \$1416%next\[0:0] $end
$var reg 1 &" \$1416%now\[0:0] $end
$var reg 1 '" \$1422%next\[0:0] $end
$var reg 1 (" \$1422%now\[0:0] $end
$var reg 1 )" \$v672%next\[0:0] $end
$var reg 1 *" \$v672%now\[0:0] $end
$var reg 1 +" \$v615%next\[0:0] $end
$var reg 1 ," \$v615%now\[0:0] $end
$var reg 1 -" \$v660%next\[0:0] $end
$var reg 1 ." \$v660%now\[0:0] $end
$var reg 1 /" \$v569%next\[0:0] $end
$var reg 1 0" \$v569%now\[0:0] $end
$var reg 1 1" \$v582%next\[0:0] $end
$var reg 1 2" \$v582%now\[0:0] $end
$var reg 1 3" \$v686%next\[0:0] $end
$var reg 1 4" \$v686%now\[0:0] $end
$var reg 1 5" \$1442%next\[0:0] $end
$var reg 1 6" \$1442%now\[0:0] $end
$var reg 1 7" \$1445%next\[0:0] $end
$var reg 1 8" \$1445%now\[0:0] $end
$var reg 1 9" \$v618%next\[0:0] $end
$var reg 1 :" \$v618%now\[0:0] $end
$var reg 1 ;" \$1426%next\[0:0] $end
$var reg 1 <" \$1426%now\[0:0] $end
$var reg 1 =" \$v701%next\[0:0] $end
$var reg 1 >" \$v701%now\[0:0] $end
$var reg 1 ?" \$v633%next\[0:0] $end
$var reg 1 @" \$v633%now\[0:0] $end
$var reg 1 A" \$v642%next\[0:0] $end
$var reg 1 B" \$v642%now\[0:0] $end
$var reg 1 C" \$1425%next\[0:0] $end
$var reg 1 D" \$1425%now\[0:0] $end
$var reg 1 E" \$v694%next\[0:0] $end
$var reg 1 F" \$v694%now\[0:0] $end
$var reg 1 G" \$v609%next\[0:0] $end
$var reg 1 H" \$v609%now\[0:0] $end
$var reg 1 I" \rdy561%next\[0:0] $end
$var reg 1 J" \rdy561%now\[0:0] $end
$var reg 1 K" \$v663%next\[0:0] $end
$var reg 1 L" \$v663%now\[0:0] $end
$var reg 1 M" \$1418%next\[0:0] $end
$var reg 1 N" \$1418%now\[0:0] $end
$var reg 1 O" \$v636%next\[0:0] $end
$var reg 1 P" \$v636%now\[0:0] $end
$var reg 1 Q" \$1391%next\[0:0] $end
$var reg 1 R" \$1391%now\[0:0] $end
$var reg 1 S" \$v648%next\[0:0] $end
$var reg 1 T" \$v648%now\[0:0] $end
$var reg 1 U" \$v697%next\[0:0] $end
$var reg 1 V" \$v697%now\[0:0] $end
$var reg 1 W" \$1398%next\[0:0] $end
$var reg 1 X" \$1398%now\[0:0] $end
$var reg 1 Y" \$v680%next\[0:0] $end
$var reg 1 Z" \$v680%now\[0:0] $end
$var reg 1 [" \$1392%next\[0:0] $end
$var reg 1 \" \$1392%now\[0:0] $end
$var reg 1 ]" \$v585%next\[0:0] $end
$var reg 1 ^" \$v585%now\[0:0] $end
$var reg 1 _" \$v693%next\[0:0] $end
$var reg 1 `" \$v693%now\[0:0] $end
$var reg 1 a" \$v681%next\[0:0] $end
$var reg 1 b" \$v681%now\[0:0] $end
$var reg 1 c" \$v591%next\[0:0] $end
$var reg 1 d" \$v591%now\[0:0] $end
$var reg 1 e" \$v654%next\[0:0] $end
$var reg 1 f" \$v654%now\[0:0] $end
$var reg 1 g" \result560%next\[0:0] $end
$var reg 1 h" \result560%now\[0:0] $end
$var reg 1 i" \$1438%next\[0:0] $end
$var reg 1 j" \$1438%now\[0:0] $end
$var reg 1 k" \$v702%next\[0:0] $end
$var reg 1 l" \$v702%now\[0:0] $end
$var reg 1 m" \$v651%next\[0:0] $end
$var reg 1 n" \$v651%now\[0:0] $end
$var reg 1 o" \$v597%next\[0:0] $end
$var reg 1 p" \$v597%now\[0:0] $end
$var reg 1 q" \$1382%next\[0:0] $end
$var reg 1 r" \$1382%now\[0:0] $end
$var reg 1 s" \$v588%next\[0:0] $end
$var reg 1 t" \$v588%now\[0:0] $end
$var reg 1 u" \$v682%next\[0:0] $end
$var reg 1 v" \$v682%now\[0:0] $end
$var reg 1 w" \$v621%next\[0:0] $end
$var reg 1 x" \$v621%now\[0:0] $end
$var reg 1 y" \$v576%next\[0:0] $end
$var reg 1 z" \$v576%now\[0:0] $end
$var reg 1 {" \$1447%next\[0:0] $end
$var reg 1 |" \$1447%now\[0:0] $end
$var reg 1 }" \$1387%next\[0:0] $end
$var reg 1 !# \$1387%now\[0:0] $end
$var reg 1 "# \$1434%next\[0:0] $end
$var reg 1 ## \$1434%now\[0:0] $end
$var reg 1 $# \$v572%next\[0:0] $end
$var reg 1 %# \$v572%now\[0:0] $end
$var reg 1 &# \$1412_w%next\[0:0] $end
$var reg 1 '# \$1412_w%now\[0:0] $end
$var reg 1 (# \$v630%next\[0:0] $end
$var reg 1 )# \$v630%now\[0:0] $end
$var reg 1 *# \$v639%next\[0:0] $end
$var reg 1 +# \$v639%now\[0:0] $end
$var reg 1 ,# \$1385%next\[0:0] $end
$var reg 1 -# \$1385%now\[0:0] $end
$var reg 1 .# \$v600%next\[0:0] $end
$var reg 1 /# \$v600%now\[0:0] $end
$var reg 1 0# \$v579%next\[0:0] $end
$var reg 1 1# \$v579%now\[0:0] $end
$var reg 1 2# \$v606%next\[0:0] $end
$var reg 1 3# \$v606%now\[0:0] $end
$var reg 1 4# \$v685%next\[0:0] $end
$var reg 1 5# \$v685%now\[0:0] $end
$var reg 1 6# \$1417%next\[0:0] $end
$var reg 1 7# \$1417%now\[0:0] $end
$var reg 1 8# \$v689%next\[0:0] $end
$var reg 1 9# \$v689%now\[0:0] $end
$var reg 1 :# \rdy564%next\[0:0] $end
$var reg 1 ;# \rdy564%now\[0:0] $end
$var reg 1 <# \$1437%next\[0:0] $end
$var reg 1 =# \$1437%now\[0:0] $end
$var reg 1 ># \$1450%next\[0:0] $end
$var reg 1 ?# \$1450%now\[0:0] $end
$var reg 1 @# \$1386%next\[0:0] $end
$var reg 1 A# \$1386%now\[0:0] $end
$var reg 32 B# \$1432_x2%next\[0:31] $end
$var reg 32 C# \$1432_x2%now\[0:31] $end
$var reg 32 D# \$1431_x1%next\[0:31] $end
$var reg 32 E# \$1431_x1%now\[0:31] $end
$var reg 32 F# \$1403_cond%next\[0:31] $end
$var reg 32 G# \$1403_cond%now\[0:31] $end
$var reg 32 H# \$1449_v%next\[0:31] $end
$var reg 32 I# \$1449_v%now\[0:31] $end
$var reg 32 J# \$1423_x1%next\[0:31] $end
$var reg 32 K# \$1423_x1%now\[0:31] $end
$var reg 32 L# \$1405_v%next\[0:31] $end
$var reg 32 M# \$1405_v%now\[0:31] $end
$var reg 32 N# \$1380_cy%next\[0:31] $end
$var reg 32 O# \$1380_cy%now\[0:31] $end
$var reg 32 P# \$1424_x2%next\[0:31] $end
$var reg 32 Q# \$1424_x2%now\[0:31] $end
$var reg 32 R# \$v698%next\[0:31] $end
$var reg 32 S# \$v698%now\[0:31] $end
$var reg 32 T# \$1409_a%next\[0:31] $end
$var reg 32 U# \$1409_a%now\[0:31] $end
$var reg 32 V# \$1443_x1%next\[0:31] $end
$var reg 32 W# \$1443_x1%now\[0:31] $end
$var reg 32 X# \$v690%next\[0:31] $end
$var reg 32 Y# \$v690%now\[0:31] $end
$var reg 32 Z# \result563%next\[0:31] $end
$var reg 32 [# \result563%now\[0:31] $end
$var reg 32 \# \$1394_result%next\[0:31] $end
$var reg 32 ]# \$1394_result%now\[0:31] $end
$var reg 32 ^# \$1451%next\[0:31] $end
$var reg 32 _# \$1451%now\[0:31] $end
$var reg 32 `# \$1400_code_ptr%next\[0:31] $end
$var reg 32 a# \$1400_code_ptr%now\[0:31] $end
$var reg 32 b# \$1435_x1%next\[0:31] $end
$var reg 32 c# \$1435_x1%now\[0:31] $end
$var reg 32 d# \$1389_acc_final%next\[0:31] $end
$var reg 32 e# \$1389_acc_final%now\[0:31] $end
$var reg 32 f# \$1410_b%next\[0:31] $end
$var reg 32 g# \$1410_b%now\[0:31] $end
$var reg 32 h# \$1440_x2%next\[0:31] $end
$var reg 32 i# \$1440_x2%now\[0:31] $end
$var reg 32 j# \$1439_x1%next\[0:31] $end
$var reg 32 k# \$1439_x1%now\[0:31] $end
$var reg 32 l# \$1415_u%next\[0:31] $end
$var reg 32 m# \$1415_u%now\[0:31] $end
$var reg 32 n# \$1399_arg%next\[0:31] $end
$var reg 32 o# \$1399_arg%now\[0:31] $end
$var reg 32 p# \$1436_x2%next\[0:31] $end
$var reg 32 q# \$1436_x2%now\[0:31] $end
$var reg 32 r# \$1407_u%next\[0:31] $end
$var reg 32 s# \$1407_u%now\[0:31] $end
$var reg 32 t# \$1428_x2%next\[0:31] $end
$var reg 32 u# \$1428_x2%now\[0:31] $end
$var reg 32 v# \$1401_n%next\[0:31] $end
$var reg 32 w# \$1401_n%now\[0:31] $end
$var reg 32 x# \$1427_x1%next\[0:31] $end
$var reg 32 y# \$1427_x1%now\[0:31] $end
$var reg 32 z# \$1414_v%next\[0:31] $end
$var reg 32 {# \$1414_v%now\[0:31] $end
$var reg 32 |# \$1419_x1%next\[0:31] $end
$var reg 32 }# \$1419_x1%now\[0:31] $end
$var reg 32 !$ \$1444_x2%next\[0:31] $end
$var reg 32 "$ \$1444_x2%now\[0:31] $end
$var reg 32 #$ \$1420_x2%next\[0:31] $end
$var reg 32 $$ \$1420_x2%now\[0:31] $end
$upscope $end
$upscope $end
$enddefinitions $end
#0
b0 !
b1 "
bU #
1$
1%
1&
1'
b0 (
b1 )
b000000000000000000000000000000000000000000000000000000000000000000000 *
b0 +
b0 ,
b000111000000000000000000000000000000000000000000000000000000000000000 -
1.
b00000000000000000000000000000000 /
b0 0
b0 1
b00000000000000000000000000000000 2
03
b0000000000000000000000000000000000000000000000000000000000000000 4
b0000000000000000000000000000000000000000000000000000000000000000 5
b0000000000000000000000000000000000000000000000000000000000000000 6
b0000000000000000000000000000000000000000000000000000000000000000 7
b000000000000000000000000000000000 8
b000000000000000000000000000000000 9
b000000000000000000000000000000000000000000000000000000000000000000000 :
b000000000000000000000000000000000000000000000000000000000000000000000 ;
b000000000000 <
b000000000000 =
b00000 >
b00000 ?
b00000000000000000000000000000000000000000000000000000000000000000000000000000000000000000000000000 @
b00000000000000000000000000000000000000000000000000000000000000000000000000000000000000000000000000 A
b0 B
b0 C
b1 D
b0 E
b0 F
b0 G
b0 H
b0 I
b0 J
b0 K
b0 L
b0 M
b0 N
b0 O
b0 P
b0 Q
b0 R
b0 S
b0 T
b0 U
b0 V
b0 W
b0 X
b0 Y
b0 Z
b0 [
b0 \
b0 ]
b0 ^
b0 _
b0 `
b0 a
b0 b
b0 c
b0 d
b0 e
b0 f
b0 g
b0 h
b0 i
b0 j
b0 k
b0 l
b0 m
b0 n
b0 o
b0 p
b0 q
b0 r
b0 s
b0 t
b0 u
b0 v
b0 w
b0 x
b0 y
b0 z
b0 {
b0 |
b0 }
b1 !"
b0 ""
b0 #"
b0 $"
b0 %"
b0 &"
b0 '"
b0 ("
b0 )"
b0 *"
b0 +"
b0 ,"
b0 -"
b0 ."
b0 /"
b0 0"
b0 1"
b0 2"
b0 3"
b0 4"
b0 5"
b0 6"
b0 7"
b0 8"
b0 9"
b0 :"
b0 ;"
b0 <"
b0 ="
b0 >"
b0 ?"
b0 @"
b0 A"
b0 B"
b0 C"
b0 D"
b0 E"
b0 F"
b0 G"
b0 H"
b1 I"
b0 J"
b0 K"
b0 L"
b0 M"
b0 N"
b0 O"
b0 P"
b0 Q"
b0 R"
b0 S"
b0 T"
b0 U"
b0 V"
b0 W"
b0 X"
b0 Y"
b0 Z"
b0 ["
b0 \"
b0 ]"
b0 ^"
b0 _"
b0 `"
b0 a"
b0 b"
b0 c"
b0 d"
b0 e"
b0 f"
b1 g"
b0 h"
b0 i"
b0 j"
b1 k"
b0 l"
b0 m"
b0 n"
b0 o"
b0 p"
b0 q"
b0 r"
b0 s"
b0 t"
b0 u"
b0 v"
b0 w"
b0 x"
b0 y"
b0 z"
b0 {"
b0 |"
b0 }"
b0 !#
b0 "#
b0 ##
b0 $#
b0 %#
b0 &#
b0 '#
b0 (#
b0 )#
b0 *#
b0 +#
b0 ,#
b0 -#
b0 .#
b0 /#
b0 0#
b0 1#
b0 2#
b0 3#
b0 4#
b0 5#
b0 6#
b0 7#
b0 8#
b0 9#
b0 :#
b0 ;#
b0 <#
b0 =#
b0 >#
b0 ?#
b0 @#
b0 A#
b00000000000000000000000000000000 B#
b00000000000000000000000000000000 C#
b00000000000000000000000000000000 D#
b00000000000000000000000000000000 E#
b00000000000000000000000000000000 F#
b00000000000000000000000000000000 G#
b00000000000000000000000000000000 H#
b00000000000000000000000000000000 I#
b00000000000000000000000000000000 J#
b00000000000000000000000000000000 K#
b00000000000000000000000000000000 L#
b00000000000000000000000000000000 M#
b00000000000000000000000000000001 N#
b00000000000000000000000000000000 O#
b00000000000000000000000000000000 P#
b00000000000000000000000000000000 Q#
b00000000000000000000000000000000 R#
b00000000000000000000000000000000 S#
b00000000000000000000000000000000 T#
b00000000000000000000000000000000 U#
b00000000000000000000000000000000 V#
b00000000000000000000000000000000 W#
b00000000000000000000000000000000 X#
b00000000000000000000000000000000 Y#
b00000000000000000000000000000000 Z#
b00000000000000000000000000000000 [#
b00000000000000000000000000000000 \#
b00000000000000000000000000000000 ]#
b00000000000000000000000000000001 ^#
b00000000000000000000000000000000 _#
b00000000000000000000000000000000 `#
b00000000000000000000000000000000 a#
b00000000000000000000000000000000 b#
b00000000000000000000000000000000 c#
b00000000000000000000000000000000 d#
b00000000000000000000000000000000 e#
b00000000000000000000000000000000 f#
b00000000000000000000000000000000 g#
b00000000000000000000000000000000 h#
b00000000000000000000000000000000 i#
b00000000000000000000000000000000 j#
b00000000000000000000000000000000 k#
b00000000000000000000000000000000 l#
b00000000000000000000000000000000 m#
b00000000000000000000000000000000 n#
b00000000000000000000000000000000 o#
b00000000000000000000000000000000 p#
b00000000000000000000000000000000 q#
b00000000000000000000000000000000 r#
b00000000000000000000000000000000 s#
b00000000000000000000000000000000 t#
b00000000000000000000000000000000 u#
b00000000000000000000000000000000 v#
b00000000000000000000000000000000 w#
b00000000000000000000000000000000 x#
b00000000000000000000000000000000 y#
b00000000000000000000000000000000 z#
b00000000000000000000000000000000 {#
b00000000000000000000000000000000 |#
b00000000000000000000000000000000 }#
b00000000000000000000000000000000 !$
b00000000000000000000000000000000 "$
b00000000000000000000000000000000 #$
b00000000000000000000000000000000 $$
#2000000
0%
0'
#5000000
b1 !
0$
0&
b1 (
#10000000
1$
1&
bUUUUUUUUUUUUUUUUUUUUUUUUUUUUUUUUUUUUUUUUUUUUUUUUUUUUUUUUUUUUUUUUUUUUU *
b1 ,
b000000000000000000000000000000000010100000000000000000000000000000000 -
bUUUUUUUUUUUUUUUUUUUUUUUUUUUUUUUU /
b1 E
b1 ""
b1 J"
b1 h"
b1 l"
b1 q"
b00000000000000000000000000000010 N#
b00000000000000000000000000000001 O#
b00000000000000000000000000000101 R#
b00000000000000000000000000000010 ^#
b00000000000000000000000000000001 _#
#15000000
0$
0&
#20000000
1$
1&
b000111000000000000000000000000000000000000000000000000000000000000000 *
b10 ,
b001111000000000000000000000000000000000000000000000000000000000000000 -
b1 ^
b1 E"
b1 r"
b00000000000000000000000000000011 N#
b00000000000000000000000000000010 O#
b00000000000000000000000000000101 S#
b00000000000000000000000000000011 ^#
b00000000000000000000000000000010 _#
#25000000
b0 !
0$
0&
b0 (
#30000000
1$
1&
b11 ,
b000000000000000000000000000000000001000000000000000000000000000000000 -
b1 H
b1 _
b1 F"
b00000000000000000000000000000100 N#
b00000000000000000000000000000011 O#
b00000000000000000000000000000010 X#
b00000000000000000000000000000100 ^#
b00000000000000000000000000000011 _#
#35000000
0$
0&
#40000000
1$
1&
b100 ,
b001001000000000000000000000000000000000000000000000000000000000000000 -
b1 I
b1 3"
b1 ,#
b00000000000000000000000000000101 N#
b00000000000000000000000000000100 O#
b00000000000000000000000000000010 Y#
b00000000000000000000000000000101 ^#
b00000000000000000000000000000100 _#
#45000000
0$
0&
#50000000
1$
1&
b101 ,
b010111000000000000000000000000000000000000000000000000000000000000000 -
b1 4"
b1 u"
b1 -#
b1 @#
b00000000000000000000000000000110 N#
b00000000000000000000000000000101 O#
b00000000000000000000000000000110 ^#
b00000000000000000000000000000101 _#
#55000000
0$
0&
#60000000
1$
1&
0.
b000000000001 <
b00000000000000000000000000000000000000000000000000000000000000000000000000000000000000000000000011 @
b0 D
b1 v"
b1 }"
b1 A#
b00000000000000000000000000000111 N#
b00000000000000000000000000000110 O#
b00000000000000000000000000000111 ^#
b00000000000000000000000000000110 _#
#65000000
0$
0&
#70000000
1$
1&
b000000000001 =
b00000000000000000000000000000000000000000000000000000000000000000000000000000000000000000000000011 A
b1 D
b0 E
b1 !#
b00000000000000000000000000001000 N#
b00000000000000000000000000000111 O#
b00000000000000000000000000001000 ^#
b00000000000000000000000000000111 _#
#75000000
0$
0&
#80000000
1$
1&
13
b1000000000000000000000000000000000000000000000000000000000000000 6
b000111000000000000000000000000000000000000000000000000000000000000000 :
b00011 >
b1 B
b0 D
b1 E
b1 h
b00000000000000000000000000001001 N#
b00000000000000000000000000001000 O#
b00000000000000000000000000001001 ^#
b00000000000000000000000000001000 _#
#85000000
0$
0&
#90000000
1$
1&
03
b1000000000000000000000000000000000000000000000000000000000000000 7
b000111000000000000000000000000000000000000000000000000000000000000000 ;
b00011 ?
b00000000000000000000000000000001000000000000000000000000000000010000000000000000000000000000000011 @
b0 B
b1 C
b0 E
b1 i
b1 {"
b00000000000000000000000000001010 N#
b00000000000000000000000000001001 O#
b00000000000000000000000000001010 ^#
b00000000000000000000000000001001 _#
#95000000
0$
0&
#100000000
1$
1&
b1 +
b00000000000000000000000000000000 /
b00000000000000000000000000000001000000000000000000000000000000010000000000000000000000000000000011 A
b0 C
b1 D
b1 |"
b00000000000000000000000000001011 N#
b00000000000000000000000000001010 O#
b00000000000000000000000000001011 ^#
b00000000000000000000000000001010 _#
#105000000
0$
0&
#110000000
1$
1&
b000000000000000000000000000000000010100000000000000000000000000000000 *
b1 1
b00000000000000000000000000000101 2
13
b0000000000000000000000000000010100000000000000000000000000000000 6
b000000000000000000000000000000000010100000000000000000000000000000000 :
b00000 >
b1 B
b0 D
b1 E
b00000000000000000000000000000101 H#
b00000000000000000000000000001100 N#
b00000000000000000000000000001011 O#
b00000000000000000000000000001100 ^#
b00000000000000000000000000001011 _#
#115000000
0$
0&
#120000000
1$
1&
03
b0000000000000000000000000000010100000000000000000000000000000000 7
b000000000000000000000000000000000010100000000000000000000000000000000 ;
b00000 ?
b00000000000000000000000000000010000000000000000000000000000000100000000000000000000000000000010111 @
b0 B
b1 C
b0 E
b1 >#
b00000000000000000000000000000101 I#
b00000000000000000000000000001101 N#
b00000000000000000000000000001100 O#
b00000000000000000000000000001101 ^#
b00000000000000000000000000001100 _#
#125000000
0$
0&
#130000000
1$
1&
b10 +
b00000000000000000000000000000010000000000000000000000000000000100000000000000000000000000000010111 A
b0 C
b1 D
b1 ?#
b00000000000000000000000000001110 N#
b00000000000000000000000000001101 O#
b00000000000000000000000000001110 ^#
b00000000000000000000000000001101 _#
#135000000
0$
0&
#140000000
1$
1&
b001111000000000000000000000000000000000000000000000000000000000000000 *
b1 0
b1000000000000000000000000000000000000000000000000000000000000000 6
b001111000000000000000000000000000000000000000000000000000000000000000 :
b00111 >
b1 B
b0 D
b1 E
b1 #"
b00000000000000000000000000001111 N#
b00000000000000000000000000001110 O#
b00000000000000000000000000001111 ^#
b00000000000000000000000000001110 _#
#145000000
0$
0&
#150000000
1$
1&
b00000000000000000000000000000101 /
b0 0
b1000000000000000000000000000000000000000000000000000000000000000 7
b001111000000000000000000000000000000000000000000000000000000000000000 ;
b00111 ?
b1 C
b0 E
b1 $"
b00000000000000000000000000010000 N#
b00000000000000000000000000001111 O#
b00000000000000000000000000000101 T#
b00000000000000000000000000010000 ^#
b00000000000000000000000000001111 _#
#155000000
0$
0&
#160000000
1$
1&
b00000000000000000000000000000000 /
b00000000000000000000000000000000 2
13
b00000000000000000000000000010001 N#
b00000000000000000000000000010000 O#
b00000000000000000000000000000101 U#
b00000000000000000000000000010001 ^#
b00000000000000000000000000010000 _#
#165000000
0$
0&
#170000000
1$
1&
b0 1
b00000000000000000000000000000101 2
b1 X
b00000000000000000000000000010010 N#
b00000000000000000000000000010001 O#
b00000000000000000000000000010010 ^#
b00000000000000000000000000010001 _#
#175000000
0$
0&
#180000000
1$
1&
03
b00000000000000000000000000000011000000000000000000000000000000100000000000000000000000000000010111 @
b0 B
b1 Y
b1 &#
b00000000000000000000000000010011 N#
b00000000000000000000000000010010 O#
b00000000000000000000000000010011 ^#
b00000000000000000000000000010010 _#
#185000000
0$
0&
#190000000
1$
1&
b11 +
b00000000000000000000000000000101 /
b00000000000000000000000000000011000000000000000000000000000000100000000000000000000000000000010111 A
b0 C
b1 D
b1 '#
b00000000000000000000000000010100 N#
b00000000000000000000000000010011 O#
b00000000000000000000000000010100 ^#
b00000000000000000000000000010011 _#
#195000000
0$
0&
#200000000
1$
1&
b000000000000000000000000000000000001000000000000000000000000000000000 *
b10 1
b00000000000000000000000000000010 2
13
b0000000000000000000000000000001000000000000000000000000000000000 6
b000000000000000000000000000000000001000000000000000000000000000000000 :
b00000 >
b1 B
b0 D
b1 E
b00000000000000000000000000000010 H#
b00000000000000000000000000010101 N#
b00000000000000000000000000010100 O#
b00000000000000000000000000010101 ^#
b00000000000000000000000000010100 _#
#205000000
0$
0&
#210000000
1$
1&
03
b0000000000000000000000000000001000000000000000000000000000000000 7
b000000000000000000000000000000000001000000000000000000000000000000000 ;
b00000 ?
b00000000000000000000000000000100000000000000000000000000000000110000000000000000000000000000001011 @
b0 B
b1 C
b0 E
b00000000000000000000000000000010 I#
b00000000000000000000000000010110 N#
b00000000000000000000000000010101 O#
b00000000000000000000000000010110 ^#
b00000000000000000000000000010101 _#
#215000000
0$
0&
#220000000
1$
1&
b100 +
b00000000000000000000000000000100000000000000000000000000000000110000000000000000000000000000001011 A
b0 C
b1 D
b00000000000000000000000000010111 N#
b00000000000000000000000000010110 O#
b00000000000000000000000000010111 ^#
b00000000000000000000000000010110 _#
#225000000
0$
0&
#230000000
1$
1&
b001001000000000000000000000000000000000000000000000000000000000000000 *
b10 0
b1000000000000000000000000000000000000000000000000000000000000000 6
b001001000000000000000000000000000000000000000000000000000000000000000 :
b00100 >
b1 B
b0 D
b1 E
b1 z
b00000000000000000000000000011000 N#
b00000000000000000000000000010111 O#
b00000000000000000000000000011000 ^#
b00000000000000000000000000010111 _#
#235000000
0$
0&
#240000000
1$
1&
b00000000000000000000000000000010 /
b1 0
b1000000000000000000000000000000000000000000000000000000000000000 7
b001001000000000000000000000000000000000000000000000000000000000000000 ;
b00100 ?
b1 C
b0 E
b1 {
b00000000000000000000000000011001 N#
b00000000000000000000000000011000 O#
b00000000000000000000000000011001 ^#
b00000000000000000000000000011000 _#
b00000000000000000000000000000010 z#
#245000000
0$
0&
#250000000
1$
1&
b00000000000000000000000000000000 /
b1 1
b00000000000000000000000000000000 2
13
b00000000000000000000000000011010 N#
b00000000000000000000000000011001 O#
b00000000000000000000000000011010 ^#
b00000000000000000000000000011001 _#
b00000000000000000000000000000010 {#
#255000000
0$
0&
#260000000
1$
1&
b10 1
b00000000000000000000000000000010 2
b1 %"
b00000000000000000000000000011011 N#
b00000000000000000000000000011010 O#
b00000000000000000000000000011011 ^#
b00000000000000000000000000011010 _#
#265000000
0$
0&
#270000000
1$
1&
03
b00000000000000000000000000000101000000000000000000000000000000110000000000000000000000000000001011 @
b0 B
b1 &"
b1 6#
b00000000000000000000000000011100 N#
b00000000000000000000000000011011 O#
b00000000000000000000000000011100 ^#
b00000000000000000000000000011011 _#
#275000000
0$
0&
#280000000
1$
1&
b101 +
b00000000000000000000000000000101000000000000000000000000000000110000000000000000000000000000001011 A
b0 C
b1 D
b1 7#
b00000000000000000000000000011101 N#
b00000000000000000000000000011100 O#
b00000000000000000000000000011101 ^#
b00000000000000000000000000011100 _#
#285000000
0$
0&
#290000000
1$
1&
b010111000000000000000000000000000000000000000000000000000000000000000 *
b10 0
b010111000000000000000000000000000000000000000000000000000000000000000 :
b01011 >
b1 B
b0 D
b1 E
b1 5"
b00000000000000000000000000011110 N#
b00000000000000000000000000011101 O#
b00000000000000000000000000011110 ^#
b00000000000000000000000000011101 _#
#295000000
0$
0&
