Projet_CAM/eclat/target/tb.vcd
$date
  Sat May 17 13:16:11 2025
$end
$version
  GHDL v0
$end
$timescale
  1 fs
$end
$scope module standard $end
$upscope $end
$scope module std_logic_1164 $end
$upscope $end
$scope module numeric_std $end
$upscope $end
$scope module runtime $end
$upscope $end
$scope module textio $end
$upscope $end
$scope module int $end
$upscope $end
$scope module util $end
$upscope $end
$scope module print $end
$upscope $end
$scope module bool $end
$upscope $end
$scope module tb_main $end
$var reg 1 ! tb_argument[0:0] $end
$var reg 1 " tb_result[0:0] $end
$var reg 1 # tb_next_result[0:0] $end
$var reg 1 $ tb_clk $end
$var reg 1 % rst $end
$scope module u1 $end
$var reg 1 & clk $end
$var reg 1 ' reset $end
$var reg 1 ( argument[0:0] $end
$var reg 1 ) result[0:0] $end
$comment \state%now\ is not handled $end
$comment \state%next\ is not handled $end
$comment \state_var695%now\ is not handled $end
$comment \state_var695%next\ is not handled $end
$comment \$1085_code\ is not handled $end
$var reg 69 * \$$1085_code_value\[0:68] $end
$var integer 32 + \$$1085_code_ptr\ $end
$var integer 32 , \$$1085_code_ptr_write\ $end
$var reg 69 - \$$1085_code_write\[0:68] $end
$var reg 1 . \$$1085_code_write_request\ $end
$comment \$1086_stack\ is not handled $end
$var reg 32 / \$$1086_stack_value\[0:31] $end
$var integer 32 0 \$$1086_stack_ptr\ $end
$var integer 32 1 \$$1086_stack_ptr_write\ $end
$var reg 32 2 \$$1086_stack_write\[0:31] $end
$var reg 1 3 \$$1086_stack_write_request\ $end
$var reg 64 4 \$v546%next\[0:63] $end
$var reg 64 5 \$v546%now\[0:63] $end
$var reg 33 6 \$1321%next\[0:32] $end
$var reg 33 7 \$1321%now\[0:32] $end
$var reg 69 8 \$1338%next\[0:68] $end
$var reg 69 9 \$1338%now\[0:68] $end
$var reg 12 : \$1335_id%next\[0:11] $end
$var reg 12 ; \$1335_id%now\[0:11] $end
$var reg 5 < \$v653%next\[0:4] $end
$var reg 5 = \$v653%now\[0:4] $end
$var reg 98 > \$1335_arg%next\[0:97] $end
$var reg 98 ? \$1335_arg%now\[0:97] $end
$var reg 1 @ \$$1086_stack_lock%next\[0:0] $end
$var reg 1 A \$$1086_stack_lock%now\[0:0] $end
$var reg 1 B \$$1085_code_lock%next\[0:0] $end
$var reg 1 C \$$1085_code_lock%now\[0:0] $end
$var reg 1 D \$v657%next\[0:0] $end
$var reg 1 E \$v657%now\[0:0] $end
$var reg 1 F \$1384%next\[0:0] $end
$var reg 1 G \$1384%now\[0:0] $end
$var reg 1 H \$v645%next\[0:0] $end
$var reg 1 I \$v645%now\[0:0] $end
$var reg 1 J \$1322%next\[0:0] $end
$var reg 1 K \$1322%now\[0:0] $end
$var reg 1 L \$v612%next\[0:0] $end
$var reg 1 M \$v612%now\[0:0] $end
$var reg 1 N \$1345%next\[0:0] $end
$var reg 1 O \$1345%now\[0:0] $end
$var reg 1 P \$1357%next\[0:0] $end
$var reg 1 Q \$1357%now\[0:0] $end
$var reg 1 R \$1325%next\[0:0] $end
$var reg 1 S \$1325%now\[0:0] $end
$var reg 1 T \$1332%next\[0:0] $end
$var reg 1 U \$1332%now\[0:0] $end
$var reg 1 V \$1390%next\[0:0] $end
$var reg 1 W \$1390%now\[0:0] $end
$var reg 1 X \$v570%next\[0:0] $end
$var reg 1 Y \$v570%now\[0:0] $end
$var reg 1 Z \$v624%next\[0:0] $end
$var reg 1 [ \$v624%now\[0:0] $end
$var reg 1 \ \$v658%next\[0:0] $end
$var reg 1 ] \$v658%now\[0:0] $end
$var reg 1 ^ \$1355%next\[0:0] $end
$var reg 1 _ \$1355%now\[0:0] $end
$var reg 1 ` \$v594%next\[0:0] $end
$var reg 1 a \$v594%now\[0:0] $end
$var reg 1 b \$v603%next\[0:0] $end
$var reg 1 c \$v603%now\[0:0] $end
$var reg 1 d \$v669%next\[0:0] $end
$var reg 1 e \$v669%now\[0:0] $end
$var reg 1 f \$v573%next\[0:0] $end
$var reg 1 g \$v573%now\[0:0] $end
$var reg 1 h \$1347%next\[0:0] $end
$var reg 1 i \$1347%now\[0:0] $end
$var reg 1 j \$v627%next\[0:0] $end
$var reg 1 k \$v627%now\[0:0] $end
$var reg 1 l \$v674%next\[0:0] $end
$var reg 1 m \$v674%now\[0:0] $end
$var reg 1 n \$1333%next\[0:0] $end
$var reg 1 o \$1333%now\[0:0] $end
$var reg 1 p \$v558%next\[0:0] $end
$var reg 1 q \$v558%now\[0:0] $end
$var reg 1 r \$v670%next\[0:0] $end
$var reg 1 s \$v670%now\[0:0] $end
$var reg 1 t \$v615%next\[0:0] $end
$var reg 1 u \$v615%now\[0:0] $end
$var reg 1 v \$1368%next\[0:0] $end
$var reg 1 w \$1368%now\[0:0] $end
$var reg 1 x \$v690%next\[0:0] $end
$var reg 1 y \$v690%now\[0:0] $end
$var reg 1 z \$v582%next\[0:0] $end
$var reg 1 { \$v582%now\[0:0] $end
$var reg 1 | \$1328%next\[0:0] $end
$var reg 1 } \$1328%now\[0:0] $end
$var reg 1 !" \$1373%next\[0:0] $end
$var reg 1 "" \$1373%now\[0:0] $end
$var reg 1 #" \$v618%next\[0:0] $end
$var reg 1 $" \$v618%now\[0:0] $end
$var reg 1 %" \$1329%next\[0:0] $end
$var reg 1 &" \$1329%now\[0:0] $end
$var reg 1 '" \$v633%next\[0:0] $end
$var reg 1 (" \$v633%now\[0:0] $end
$var reg 1 )" \$v642%next\[0:0] $end
$var reg 1 *" \$v642%now\[0:0] $end
$var reg 1 +" \rdy544%next\[0:0] $end
$var reg 1 ," \rdy544%now\[0:0] $end
$var reg 1 -" \$1339%next\[0:0] $end
$var reg 1 ." \$1339%now\[0:0] $end
$var reg 1 /" \$v662%next\[0:0] $end
$var reg 1 0" \$v662%now\[0:0] $end
$var reg 1 1" \$1350_w%next\[0:0] $end
$var reg 1 2" \$1350_w%now\[0:0] $end
$var reg 1 3" \$v564%next\[0:0] $end
$var reg 1 4" \$v564%now\[0:0] $end
$var reg 1 5" \$v609%next\[0:0] $end
$var reg 1 6" \$v609%now\[0:0] $end
$var reg 1 7" \$1369%next\[0:0] $end
$var reg 1 8" \$1369%now\[0:0] $end
$var reg 1 9" \$1334%next\[0:0] $end
$var reg 1 :" \$1334%now\[0:0] $end
$var reg 1 ;" \$v636%next\[0:0] $end
$var reg 1 <" \$v636%now\[0:0] $end
$var reg 1 =" \$v665%next\[0:0] $end
$var reg 1 >" \$v665%now\[0:0] $end
$var reg 1 ?" \$v538%next\[0:0] $end
$var reg 1 @" \$v538%now\[0:0] $end
$var reg 1 A" \$1381%next\[0:0] $end
$var reg 1 B" \$1381%now\[0:0] $end
$var reg 1 C" \$1356%next\[0:0] $end
$var reg 1 D" \$1356%now\[0:0] $end
$var reg 1 E" \$v648%next\[0:0] $end
$var reg 1 F" \$v648%now\[0:0] $end
$var reg 1 G" \$1364%next\[0:0] $end
$var reg 1 H" \$1364%now\[0:0] $end
$var reg 1 I" \$1391%next\[0:0] $end
$var reg 1 J" \$1391%now\[0:0] $end
$var reg 1 K" \$1352%next\[0:0] $end
$var reg 1 L" \$1352%now\[0:0] $end
$var reg 1 M" \$1331%next\[0:0] $end
$var reg 1 N" \$1331%now\[0:0] $end
$var reg 1 O" \$v677%next\[0:0] $end
$var reg 1 P" \$v677%now\[0:0] $end
$var reg 1 Q" \$1360%next\[0:0] $end
$var reg 1 R" \$1360%now\[0:0] $end
$var reg 1 S" \$v693%next\[0:0] $end
$var reg 1 T" \$v693%now\[0:0] $end
$var reg 1 U" \$v549%next\[0:0] $end
$var reg 1 V" \$v549%now\[0:0] $end
$var reg 1 W" \$v585%next\[0:0] $end
$var reg 1 X" \$v585%now\[0:0] $end
$var reg 1 Y" \result540%next\[0:0] $end
$var reg 1 Z" \result540%now\[0:0] $end
$var reg 1 [" \$v591%next\[0:0] $end
$var reg 1 \" \$v591%now\[0:0] $end
$var reg 1 ]" \$1389%next\[0:0] $end
$var reg 1 ^" \$1389%now\[0:0] $end
$var reg 1 _" \$v681%next\[0:0] $end
$var reg 1 `" \$v681%now\[0:0] $end
$var reg 1 a" \$1351_w%next\[0:0] $end
$var reg 1 b" \$1351_w%now\[0:0] $end
$var reg 1 c" \rdy541%next\[0:0] $end
$var reg 1 d" \rdy541%now\[0:0] $end
$var reg 1 e" \$v567%next\[0:0] $end
$var reg 1 f" \$v567%now\[0:0] $end
$var reg 1 g" \$v597%next\[0:0] $end
$var reg 1 h" \$v597%now\[0:0] $end
$var reg 1 i" \$v651%next\[0:0] $end
$var reg 1 j" \$v651%now\[0:0] $end
$var reg 1 k" \$v588%next\[0:0] $end
$var reg 1 l" \$v588%now\[0:0] $end
$var reg 1 m" \$1327%next\[0:0] $end
$var reg 1 n" \$1327%now\[0:0] $end
$var reg 1 o" \$v682%next\[0:0] $end
$var reg 1 p" \$v682%now\[0:0] $end
$var reg 1 q" \$v576%next\[0:0] $end
$var reg 1 r" \$v576%now\[0:0] $end
$var reg 1 s" \$v621%next\[0:0] $end
$var reg 1 t" \$v621%now\[0:0] $end
$var reg 1 u" \$1372%next\[0:0] $end
$var reg 1 v" \$1372%now\[0:0] $end
$var reg 1 w" \$v552%next\[0:0] $end
$var reg 1 x" \$v552%now\[0:0] $end
$var reg 1 y" \$1365%next\[0:0] $end
$var reg 1 z" \$1365%now\[0:0] $end
$var reg 1 {" \$v661%next\[0:0] $end
$var reg 1 |" \$v661%now\[0:0] $end
$var reg 1 }" \$1324%next\[0:0] $end
$var reg 1 !# \$1324%now\[0:0] $end
$var reg 1 "# \$v673%next\[0:0] $end
$var reg 1 ## \$v673%now\[0:0] $end
$var reg 1 $# \$1343%next\[0:0] $end
$var reg 1 %# \$1343%now\[0:0] $end
$var reg 1 &# \$v630%next\[0:0] $end
$var reg 1 '# \$v630%now\[0:0] $end
$var reg 1 (# \$1326%next\[0:0] $end
$var reg 1 )# \$1326%now\[0:0] $end
$var reg 1 *# \$v639%next\[0:0] $end
$var reg 1 +# \$v639%now\[0:0] $end
$var reg 1 ,# \$1385%next\[0:0] $end
$var reg 1 -# \$1385%now\[0:0] $end
$var reg 1 .# \$v579%next\[0:0] $end
$var reg 1 /# \$v579%now\[0:0] $end
$var reg 1 0# \$v606%next\[0:0] $end
$var reg 1 1# \$v606%now\[0:0] $end
$var reg 1 2# \$v600%next\[0:0] $end
$var reg 1 3# \$v600%now\[0:0] $end
$var reg 1 4# \$v656%next\[0:0] $end
$var reg 1 5# \$v656%now\[0:0] $end
$var reg 1 6# \$1376%next\[0:0] $end
$var reg 1 7# \$1376%now\[0:0] $end
$var reg 1 8# \$v685%next\[0:0] $end
$var reg 1 9# \$v685%now\[0:0] $end
$var reg 1 :# \$v561%next\[0:0] $end
$var reg 1 ;# \$v561%now\[0:0] $end
$var reg 1 <# \$v678%next\[0:0] $end
$var reg 1 =# \$v678%now\[0:0] $end
$var reg 1 ># \$1323%next\[0:0] $end
$var reg 1 ?# \$1323%now\[0:0] $end
$var reg 1 @# \$1377%next\[0:0] $end
$var reg 1 A# \$1377%now\[0:0] $end
$var reg 1 B# \$v689%next\[0:0] $end
$var reg 1 C# \$v689%now\[0:0] $end
$var reg 1 D# \$1387_b%next\[0:0] $end
$var reg 1 E# \$1387_b%now\[0:0] $end
$var reg 1 F# \$1361%next\[0:0] $end
$var reg 1 G# \$1361%now\[0:0] $end
$var reg 1 H# \$v555%next\[0:0] $end
$var reg 1 I# \$v555%now\[0:0] $end
$var reg 1 J# \$1386%next\[0:0] $end
$var reg 1 K# \$1386%now\[0:0] $end
$var reg 1 L# \$1380%next\[0:0] $end
$var reg 1 M# \$1380%now\[0:0] $end
$var reg 32 N# \$1359_x2%next\[0:31] $end
$var reg 32 O# \$1359_x2%now\[0:31] $end
$var reg 32 P# \$v666%next\[0:31] $end
$var reg 32 Q# \$v666%now\[0:31] $end
$var reg 32 R# \$1340_arg%next\[0:31] $end
$var reg 32 S# \$1340_arg%now\[0:31] $end
$var reg 32 T# \$1374_x1%next\[0:31] $end
$var reg 32 U# \$1374_x1%now\[0:31] $end
$var reg 32 V# \$1363_x2%next\[0:31] $end
$var reg 32 W# \$1363_x2%now\[0:31] $end
$var reg 32 X# \$1358_x1%next\[0:31] $end
$var reg 32 Y# \$1358_x1%now\[0:31] $end
$var reg 32 Z# \$1367_x2%next\[0:31] $end
$var reg 32 [# \$1367_x2%now\[0:31] $end
$var reg 32 \# \$1379_x2%next\[0:31] $end
$var reg 32 ]# \$1379_x2%now\[0:31] $end
$var reg 32 ^# \$v686%next\[0:31] $end
$var reg 32 _# \$v686%now\[0:31] $end
$var reg 32 `# \$1330_acc_final%next\[0:31] $end
$var reg 32 a# \$1330_acc_final%now\[0:31] $end
$var reg 32 b# \result543%next\[0:31] $end
$var reg 32 c# \result543%now\[0:31] $end
$var reg 32 d# \$1335_result%next\[0:31] $end
$var reg 32 e# \$1335_result%now\[0:31] $end
$var reg 32 f# \$1344_v%next\[0:31] $end
$var reg 32 g# \$1344_v%now\[0:31] $end
$var reg 32 h# \$1371_x2%next\[0:31] $end
$var reg 32 i# \$1371_x2%now\[0:31] $end
$var reg 32 j# \$1346_u%next\[0:31] $end
$var reg 32 k# \$1346_u%now\[0:31] $end
$var reg 32 l# \$1378_x1%next\[0:31] $end
$var reg 32 m# \$1378_x1%now\[0:31] $end
$var reg 32 n# \$1375_x2%next\[0:31] $end
$var reg 32 o# \$1375_x2%now\[0:31] $end
$var reg 32 p# \$1392%next\[0:31] $end
$var reg 32 q# \$1392%now\[0:31] $end
$var reg 32 r# \$1354_u%next\[0:31] $end
$var reg 32 s# \$1354_u%now\[0:31] $end
$var reg 32 t# \$1370_x1%next\[0:31] $end
$var reg 32 u# \$1370_x1%now\[0:31] $end
$var reg 32 v# \$1353_v%next\[0:31] $end
$var reg 32 w# \$1353_v%now\[0:31] $end
$var reg 32 x# \$1382_x1%next\[0:31] $end
$var reg 32 y# \$1382_x1%now\[0:31] $end
$var reg 32 z# \$1366_x1%next\[0:31] $end
$var reg 32 {# \$1366_x1%now\[0:31] $end
$var reg 32 |# \$1320_cy%next\[0:31] $end
$var reg 32 }# \$1320_cy%now\[0:31] $end
$var reg 32 !$ \$1383_x2%next\[0:31] $end
$var reg 32 "$ \$1383_x2%now\[0:31] $end
$var reg 32 #$ \$1348_a%next\[0:31] $end
$var reg 32 $$ \$1348_a%now\[0:31] $end
$var reg 32 %$ \$1349_b%next\[0:31] $end
$var reg 32 &$ \$1349_b%now\[0:31] $end
$var reg 32 '$ \$1341_code_ptr%next\[0:31] $end
$var reg 32 ($ \$1341_code_ptr%now\[0:31] $end
$var reg 32 )$ \$1362_x1%next\[0:31] $end
$var reg 32 *$ \$1362_x1%now\[0:31] $end
$var reg 32 +$ \$1342_n%next\[0:31] $end
$var reg 32 ,$ \$1342_n%now\[0:31] $end
$var reg 32 -$ \$1388_v%next\[0:31] $end
$var reg 32 .$ \$1388_v%now\[0:31] $end
$upscope $end
$upscope $end
$enddefinitions $end
#0
b0 !
b1 "
bU #
1$
1%
1&
1'
b0 (
b1 )
b000000000000000000000000000000000000000000000000000000000000000000000 *
b0 +
b0 ,
b000111000000000000000000000000000000000000000000000000000000000000000 -
1.
b00000000000000000000000000000000 /
b0 0
b0 1
b00000000000000000000000000000000 2
03
b0000000000000000000000000000000000000000000000000000000000000000 4
b0000000000000000000000000000000000000000000000000000000000000000 5
b000000000000000000000000000000000 6
b000000000000000000000000000000000 7
b000000000000000000000000000000000000000000000000000000000000000000000 8
b000000000000000000000000000000000000000000000000000000000000000000000 9
b000000000000 :
b000000000000 ;
b00000 <
b00000 =
b00000000000000000000000000000000000000000000000000000000000000000000000000000000000000000000000000 >
b00000000000000000000000000000000000000000000000000000000000000000000000000000000000000000000000000 ?
b0 @
b0 A
b1 B
b0 C
b0 D
b0 E
b0 F
b0 G
b0 H
b0 I
b0 J
b0 K
b0 L
b0 M
b0 N
b0 O
b0 P
b0 Q
b0 R
b0 S
b0 T
b0 U
b0 V
b0 W
b0 X
b0 Y
b0 Z
b0 [
b0 \
b0 ]
b0 ^
b0 _
b0 `
b0 a
b0 b
b0 c
b0 d
b0 e
b0 f
b0 g
b0 h
b0 i
b0 j
b0 k
b0 l
b0 m
b0 n
b0 o
b0 p
b0 q
b0 r
b0 s
b0 t
b0 u
b0 v
b0 w
b1 x
b0 y
b0 z
b0 {
b0 |
b0 }
b0 !"
b0 ""
b0 #"
b0 $"
b0 %"
b0 &"
b0 '"
b0 ("
b0 )"
b0 *"
b0 +"
b0 ,"
b0 -"
b0 ."
b0 /"
b0 0"
b0 1"
b0 2"
b0 3"
b0 4"
b0 5"
b0 6"
b0 7"
b0 8"
b0 9"
b0 :"
b0 ;"
b0 <"
b0 ="
b0 >"
b1 ?"
b0 @"
b0 A"
b0 B"
b0 C"
b0 D"
b0 E"
b0 F"
b0 G"
b0 H"
b0 I"
b0 J"
b0 K"
b0 L"
b0 M"
b0 N"
b0 O"
b0 P"
b0 Q"
b0 R"
b0 S"
b0 T"
b0 U"
b0 V"
b0 W"
b0 X"
b1 Y"
b0 Z"
b0 ["
b0 \"
b0 ]"
b0 ^"
b0 _"
b0 `"
b0 a"
b0 b"
b1 c"
b0 d"
b0 e"
b0 f"
b0 g"
b0 h"
b0 i"
b0 j"
b0 k"
b0 l"
b0 m"
b0 n"
b0 o"
b0 p"
b0 q"
b0 r"
b0 s"
b0 t"
b0 u"
b0 v"
b0 w"
b0 x"
b0 y"
b0 z"
b0 {"
b0 |"
b0 }"
b0 !#
b0 "#
b0 ##
b0 $#
b0 %#
b0 &#
b0 '#
b0 (#
b0 )#
b0 *#
b0 +#
b0 ,#
b0 -#
b0 .#
b0 /#
b0 0#
b0 1#
b0 2#
b0 3#
b0 4#
b0 5#
b0 6#
b0 7#
b0 8#
b0 9#
b0 :#
b0 ;#
b0 <#
b0 =#
b0 >#
b0 ?#
b0 @#
b0 A#
b0 B#
b0 C#
b0 D#
b0 E#
b0 F#
b0 G#
b0 H#
b0 I#
b0 J#
b0 K#
b0 L#
b0 M#
b00000000000000000000000000000000 N#
b00000000000000000000000000000000 O#
b00000000000000000000000000000000 P#
b00000000000000000000000000000000 Q#
b00000000000000000000000000000000 R#
b00000000000000000000000000000000 S#
b00000000000000000000000000000000 T#
b00000000000000000000000000000000 U#
b00000000000000000000000000000000 V#
b00000000000000000000000000000000 W#
b00000000000000000000000000000000 X#
b00000000000000000000000000000000 Y#
b00000000000000000000000000000000 Z#
b00000000000000000000000000000000 [#
b00000000000000000000000000000000 \#
b00000000000000000000000000000000 ]#
b00000000000000000000000000000000 ^#
b00000000000000000000000000000000 _#
b00000000000000000000000000000000 `#
b00000000000000000000000000000000 a#
b00000000000000000000000000000000 b#
b00000000000000000000000000000000 c#
b00000000000000000000000000000000 d#
b00000000000000000000000000000000 e#
b00000000000000000000000000000000 f#
b00000000000000000000000000000000 g#
b00000000000000000000000000000000 h#
b00000000000000000000000000000000 i#
b00000000000000000000000000000000 j#
b00000000000000000000000000000000 k#
b00000000000000000000000000000000 l#
b00000000000000000000000000000000 m#
b00000000000000000000000000000000 n#
b00000000000000000000000000000000 o#
b00000000000000000000000000000001 p#
b00000000000000000000000000000000 q#
b00000000000000000000000000000000 r#
b00000000000000000000000000000000 s#
b00000000000000000000000000000000 t#
b00000000000000000000000000000000 u#
b00000000000000000000000000000000 v#
b00000000000000000000000000000000 w#
b00000000000000000000000000000000 x#
b00000000000000000000000000000000 y#
b00000000000000000000000000000000 z#
b00000000000000000000000000000000 {#
b00000000000000000000000000000001 |#
b00000000000000000000000000000000 }#
b00000000000000000000000000000000 !$
b00000000000000000000000000000000 "$
b00000000000000000000000000000000 #$
b00000000000000000000000000000000 $$
b00000000000000000000000000000000 %$
b00000000000000000000000000000000 &$
b00000000000000000000000000000000 '$
b00000000000000000000000000000000 ($
b00000000000000000000000000000000 )$
b00000000000000000000000000000000 *$
b00000000000000000000000000000000 +$
b00000000000000000000000000000000 ,$
b00000000000000000000000000000000 -$
b00000000000000000000000000000000 .$
#2000000
0%
0'
#5000000
b1 !
0$
0&
b1 (
#10000000
1$
1&
bUUUUUUUUUUUUUUUUUUUUUUUUUUUUUUUUUUUUUUUUUUUUUUUUUUUUUUUUUUUUUUUUUUUUU *
b1 ,
b000000000000000000000000000000000001000000000000000000000000000000000 -
bUUUUUUUUUUUUUUUUUUUUUUUUUUUUUUUU /
b1 C
b1 J
b1 y
b1 @"
b1 Z"
b1 d"
b00000000000000000000000000000010 ^#
b00000000000000000000000000000010 p#
b00000000000000000000000000000001 q#
b00000000000000000000000000000010 |#
b00000000000000000000000000000001 }#
#15000000
0$
0&
#20000000
1$
1&
b000111000000000000000000000000000000000000000000000000000000000000000 *
b10 ,
b001001000000000000000000000000000000000000000000000000000000000000000 -
b1 K
b1 o"
b1 >#
b00000000000000000000000000000010 _#
b00000000000000000000000000000011 p#
b00000000000000000000000000000010 q#
b00000000000000000000000000000011 |#
b00000000000000000000000000000010 }#
#25000000
b0 !
0$
0&
b0 (
#30000000
1$
1&
b11 ,
b000111000000000000000000000000000000000000000000000000000000000000000 -
b1 p"
b1 }"
b1 <#
b1 ?#
b00000000000000000000000000000100 p#
b00000000000000000000000000000011 q#
b00000000000000000000000000000100 |#
b00000000000000000000000000000011 }#
#35000000
0$
0&
#40000000
1$
1&
b100 ,
b001101000000000000000000000000000000000000000000000000000000000000000 -
b1 R
b1 l
b1 !#
b1 =#
b00000000000000000000000000000101 p#
b00000000000000000000000000000100 q#
b00000000000000000000000000000101 |#
b00000000000000000000000000000100 }#
#45000000
0$
0&
#50000000
1$
1&
b101 ,
b001111000000000000000000000000000000000000000000000000000000000000000 -
b1 S
b1 m
b1 r
b1 (#
b00000000000000000000000000000110 p#
b00000000000000000000000000000101 q#
b00000000000000000000000000000110 |#
b00000000000000000000000000000101 }#
#55000000
0$
0&
#60000000
1$
1&
b110 ,
b000000000000000000000000000000011011100000000000000000000000000000000 -
b1 s
b1 m"
b1 )#
b00000000000000000000000000110111 P#
b00000000000000000000000000000111 p#
b00000000000000000000000000000110 q#
b00000000000000000000000000000111 |#
b00000000000000000000000000000110 }#
#65000000
0$
0&
#70000000
1$
1&
b111 ,
b001001000000000000000000000000000000000000000000000000000000000000000 -
b1 V
b1 /"
b1 n"
b00000000000000000000000000110111 Q#
b00000000000000000000000000001000 p#
b00000000000000000000000000000111 q#
b00000000000000000000000000001000 |#
b00000000000000000000000000000111 }#
#75000000
0$
0&
#80000000
1$
1&
b1000 ,
b010111000000000000000000000000000000000000000000000000000000000000000 -
b1 W
b1 \
b1 0"
b1 I"
b00000000000000000000000000001001 p#
b00000000000000000000000000001000 q#
b00000000000000000000000000001001 |#
b00000000000000000000000000001000 }#
#85000000
0$
0&
#90000000
1$
1&
0.
b000000000001 :
b00000000000000000000000000000000000000000000000000000000000000000000000000000000000000000000000011 >
b0 B
b1 ]
b1 |
b1 J"
b00000000000000000000000000001010 p#
b00000000000000000000000000001001 q#
b00000000000000000000000000001010 |#
b00000000000000000000000000001001 }#
#95000000
0$
0&
#100000000
1$
1&
b000000000001 ;
b00000000000000000000000000000000000000000000000000000000000000000000000000000000000000000000000011 ?
b1 B
b0 C
b1 }
b00000000000000000000000000001011 p#
b00000000000000000000000000001010 q#
b00000000000000000000000000001011 |#
b00000000000000000000000000001010 }#
#105000000
0$
0&
#110000000
1$
1&
13
b1000000000000000000000000000000000000000000000000000000000000000 4
b000111000000000000000000000000000000000000000000000000000000000000000 8
b00011 <
b1 @
b0 B
b1 C
b1 ,#
b00000000000000000000000000001100 p#
b00000000000000000000000000001011 q#
b00000000000000000000000000001100 |#
b00000000000000000000000000001011 }#
#115000000
0$
0&
#120000000
1$
1&
03
b1000000000000000000000000000000000000000000000000000000000000000 5
b000111000000000000000000000000000000000000000000000000000000000000000 9
b00011 =
b00000000000000000000000000000001000000000000000000000000000000010000000000000000000000000000000011 >
b0 @
b1 A
b0 C
b1 -#
b1 J#
b00000000000000000000000000001101 p#
b00000000000000000000000000001100 q#
b00000000000000000000000000001101 |#
b00000000000000000000000000001100 }#
#125000000
0$
0&
#130000000
1$
1&
b1 +
b00000000000000000000000000000000 /
b00000000000000000000000000000001000000000000000000000000000000010000000000000000000000000000000011 ?
b0 A
b1 B
b1 K#
b00000000000000000000000000001110 p#
b00000000000000000000000000001101 q#
b00000000000000000000000000001110 |#
b00000000000000000000000000001101 }#
#135000000
0$
0&
#140000000
1$
1&
b000000000000000000000000000000000001000000000000000000000000000000000 *
b1 1
b00000000000000000000000000000010 2
13
b0000000000000000000000000000001000000000000000000000000000000000 4
b000000000000000000000000000000000001000000000000000000000000000000000 8
b00000 <
b1 @
b0 B
b1 C
b00000000000000000000000000001111 p#
b00000000000000000000000000001110 q#
b00000000000000000000000000001111 |#
b00000000000000000000000000001110 }#
b00000000000000000000000000000010 -$
#145000000
0$
0&
#150000000
1$
1&
03
b0000000000000000000000000000001000000000000000000000000000000000 5
b000000000000000000000000000000000001000000000000000000000000000000000 9
b00000 =
b00000000000000000000000000000010000000000000000000000000000000100000000000000000000000000000001011 >
b0 @
b1 A
b0 C
b1 ]"
b00000000000000000000000000010000 p#
b00000000000000000000000000001111 q#
b00000000000000000000000000010000 |#
b00000000000000000000000000001111 }#
b00000000000000000000000000000010 .$
#155000000
0$
0&
#160000000
1$
1&
b10 +
b00000000000000000000000000000010000000000000000000000000000000100000000000000000000000000000001011 ?
b0 A
b1 B
b1 ^"
b00000000000000000000000000010001 p#
b00000000000000000000000000010000 q#
b00000000000000000000000000010001 |#
b00000000000000000000000000010000 }#
#165000000
0$
0&
#170000000
1$
1&
b001001000000000000000000000000000000000000000000000000000000000000000 *
b1 0
b1000000000000000000000000000000000000000000000000000000000000000 4
b001001000000000000000000000000000000000000000000000000000000000000000 8
b00100 <
b1 @
b0 B
b1 C
b1 K"
b00000000000000000000000000010010 p#
b00000000000000000000000000010001 q#
b00000000000000000000000000010010 |#
b00000000000000000000000000010001 }#
#175000000
0$
0&
#180000000
1$
1&
b00000000000000000000000000000010 /
b0 0
b1000000000000000000000000000000000000000000000000000000000000000 5
b001001000000000000000000000000000000000000000000000000000000000000000 9
b00100 =
b1 A
b0 C
b1 L"
b00000000000000000000000000010011 p#
b00000000000000000000000000010010 q#
b00000000000000000000000000000010 v#
b00000000000000000000000000010011 |#
b00000000000000000000000000010010 }#
#185000000
0$
0&
#190000000
1$
1&
b00000000000000000000000000000000 /
b0 1
b00000000000000000000000000000000 2
13
b00000000000000000000000000010100 p#
b00000000000000000000000000010011 q#
b00000000000000000000000000000010 w#
b00000000000000000000000000010100 |#
b00000000000000000000000000010011 }#
#195000000
0$
0&
#200000000
1$
1&
b1 1
b00000000000000000000000000000010 2
b1 ^
b00000000000000000000000000010101 p#
b00000000000000000000000000010100 q#
b00000000000000000000000000010101 |#
b00000000000000000000000000010100 }#
#205000000
0$
0&
#210000000
1$
1&
03
b00000000000000000000000000000011000000000000000000000000000000100000000000000000000000000000001011 >
b0 @
b1 _
b1 C"
b00000000000000000000000000010110 p#
b00000000000000000000000000010101 q#
b00000000000000000000000000010110 |#
b00000000000000000000000000010101 }#
#215000000
0$
0&
#220000000
1$
1&
b11 +
b00000000000000000000000000000011000000000000000000000000000000100000000000000000000000000000001011 ?
b0 A
b1 B
b1 D"
b00000000000000000000000000010111 p#
b00000000000000000000000000010110 q#
b00000000000000000000000000010111 |#
b00000000000000000000000000010110 }#
#225000000
0$
0&
#230000000
1$
1&
b000111000000000000000000000000000000000000000000000000000000000000000 *
b10 1
13
b000111000000000000000000000000000000000000000000000000000000000000000 8
b00011 <
b1 @
b0 B
b1 C
b00000000000000000000000000011000 p#
b00000000000000000000000000010111 q#
b00000000000000000000000000011000 |#
b00000000000000000000000000010111 }#
#235000000
0$
0&
#240000000
1$
1&
03
b000111000000000000000000000000000000000000000000000000000000000000000 9
b00011 =
b00000000000000000000000000000100000000000000000000000000000000110000000000000000000000000000001011 >
b0 @
b1 A
b0 C
b00000000000000000000000000011001 p#
b00000000000000000000000000011000 q#
b00000000000000000000000000011001 |#
b00000000000000000000000000011000 }#
#245000000
0$
0&
#250000000
1$
1&
b100 +
b00000000000000000000000000000100000000000000000000000000000000110000000000000000000000000000001011 ?
b0 A
b1 B
b00000000000000000000000000011010 p#
b00000000000000000000000000011001 q#
b00000000000000000000000000011010 |#
b00000000000000000000000000011001 }#
#255000000
0$
0&
#260000000
1$
1&
b001101000000000000000000000000000000000000000000000000000000000000000 *
b10 0
b001101000000000000000000000000000000000000000000000000000000000000000 8
b00110 <
b1 @
b0 B
b1 C
b1 $#
b00000000000000000000000000011011 p#
b00000000000000000000000000011010 q#
b00000000000000000000000000011011 |#
b00000000000000000000000000011010 }#
#265000000
0$
0&
#270000000
1$
1&
b00000000000000000000000000000010 /
b001101000000000000000000000000000000000000000000000000000000000000000 9
b00110 =
b00000000000000000000000000000101000000000000000000000000000000110000000000000000000000000000001011 >
b0 @
b1 A
b0 C
b1 %#
b00000000000000000000000000000010 f#
b00000000000000000000000000011100 p#
b00000000000000000000000000011011 q#
b00000000000000000000000000011100 |#
b00000000000000000000000000011011 }#
#275000000
0$
0&
#280000000
1$
1&
b101 +
b00000000000000000000000000000101000000000000000000000000000000110000000000000000000000000000001011 ?
b0 A
b1 B
b00000000000000000000000000000010 g#
b00000000000000000000000000011101 p#
b00000000000000000000000000011100 q#
b00000000000000000000000000011101 |#
b00000000000000000000000000011100 }#
#285000000
0$
0&
#290000000
1$
1&
b001111000000000000000000000000000000000000000000000000000000000000000 *
b001111000000000000000000000000000000000000000000000000000000000000000 8
b00111 <
b1 @
b0 B
b1 C
b1 h
b00000000000000000000000000011110 p#
b00000000000000000000000000011101 q#
b00000000000000000000000000011110 |#
b00000000000000000000000000011101 }#
